(kicad_symbol_lib (version 20211014) (generator kicad_symbol_editor)
  (symbol "-HV" (power) (pin_names (offset 0)) (in_bom yes) (on_board yes)
    (property "Reference" "#PWR" (id 0) (at -1.27 -5.08 0)
      (effects (font (size 1.27 1.27)) hide)
    )
    (property "Value" "-HV" (id 1) (at 0 -3.81 0)
      (effects (font (size 1.27 1.27)))
    )
    (property "Footprint" "" (id 2) (at 0 0 0)
      (effects (font (size 1.27 1.27)) hide)
    )
    (property "Datasheet" "" (id 3) (at 0 0 0)
      (effects (font (size 1.27 1.27)) hide)
    )
    (property "ki_keywords" "power-flag" (id 4) (at 0 0 0)
      (effects (font (size 1.27 1.27)) hide)
    )
    (symbol "-HV_0_0"
      (pin power_in line (at 0 0 270) (length 0) hide
        (name "-HV" (effects (font (size 1.27 1.27))))
        (number "1" (effects (font (size 1.27 1.27))))
      )
    )
    (symbol "-HV_0_1"
      (polyline
        (pts
          (xy 0 -2.54)
          (xy 0 0)
        )
        (stroke (width 0) (type default) (color 0 0 0 0))
        (fill (type none))
      )
      (polyline
        (pts
          (xy 0 -2.54)
          (xy 1.27 -1.27)
          (xy 0 -2.54)
          (xy -1.27 -1.27)
        )
        (stroke (width 0) (type default) (color 0 0 0 0))
        (fill (type none))
      )
    )
  )
  (symbol "AstroPix2_split" (pin_names (offset 1.016)) (in_bom yes) (on_board yes)
    (property "Reference" "U" (id 0) (at -25.4 43.18 0)
      (effects (font (size 1.27 1.27)))
    )
    (property "Value" "AstroPix2_split" (id 1) (at -15.24 40.64 0)
      (effects (font (size 1.27 1.27)))
    )
    (property "Footprint" "astropix:AstroPix2" (id 2) (at -15.24 43.18 0)
      (effects (font (size 1.27 1.27)) hide)
    )
    (property "Datasheet" "" (id 3) (at -21.59 43.18 0)
      (effects (font (size 1.27 1.27)) hide)
    )
    (property "ki_locked" "" (id 4) (at 0 0 0)
      (effects (font (size 1.27 1.27)))
    )
    (symbol "AstroPix2_split_0_1"
      (polyline
        (pts
          (xy -16.51 -6.35)
          (xy -16.51 -6.35)
        )
        (stroke (width 0) (type default) (color 0 0 0 0))
        (fill (type none))
      )
    )
    (symbol "AstroPix2_split_1_1"
      (rectangle (start -25.4 -19.05) (end 25.4 -26.67)
        (stroke (width 0) (type default) (color 0 0 0 0))
        (fill (type none))
      )
      (rectangle (start -25.4 -10.16) (end 25.4 -19.05)
        (stroke (width 0) (type default) (color 0 0 0 0))
        (fill (type none))
      )
      (rectangle (start -25.4 2.54) (end 25.4 -10.16)
        (stroke (width 0) (type default) (color 0 0 0 0))
        (fill (type none))
      )
      (rectangle (start -25.4 7.62) (end 25.4 2.54)
        (stroke (width 0) (type default) (color 0 0 0 0))
        (fill (type none))
      )
      (rectangle (start -25.4 17.78) (end 25.4 7.62)
        (stroke (width 0) (type default) (color 0 0 0 0))
        (fill (type none))
      )
      (rectangle (start -25.4 36.83) (end 25.4 -41.91)
        (stroke (width 0) (type default) (color 0 0 0 0))
        (fill (type background))
      )
      (polyline
        (pts
          (xy 11.43 -22.86)
          (xy 11.43 -22.86)
        )
        (stroke (width 0) (type default) (color 0 0 0 0))
        (fill (type none))
      )
      (polyline
        (pts
          (xy 11.43 -22.86)
          (xy 11.43 -22.86)
        )
        (stroke (width 0) (type default) (color 0 0 0 0))
        (fill (type none))
      )
      (polyline
        (pts
          (xy 11.43 -22.86)
          (xy 11.43 -22.86)
        )
        (stroke (width 0) (type default) (color 0 0 0 0))
        (fill (type none))
      )
      (polyline
        (pts
          (xy 11.43 -22.86)
          (xy 11.43 -22.86)
        )
        (stroke (width 0) (type default) (color 0 0 0 0))
        (fill (type none))
      )
      (polyline
        (pts
          (xy 11.43 -22.86)
          (xy 11.43 -22.86)
        )
        (stroke (width 0) (type default) (color 0 0 0 0))
        (fill (type none))
      )
      (polyline
        (pts
          (xy 20.32 -22.86)
          (xy 20.32 -22.86)
        )
        (stroke (width 0) (type default) (color 0 0 0 0))
        (fill (type none))
      )
      (text "Analog" (at 0 25.4 0)
        (effects (font (size 3.9878 3.9878)))
      )
      (text "Analog Out" (at 0 -13.97 0)
        (effects (font (size 2.0066 2.0066)))
      )
      (text "Injection" (at 0 5.08 0)
        (effects (font (size 2.0066 2.0066)))
      )
      (text "Temp. sensor" (at 0 -22.86 0)
        (effects (font (size 2.0066 2.0066)))
      )
      (text "V Bias" (at 0 -3.81 0)
        (effects (font (size 2.0066 2.0066)))
      )
      (pin power_in line (at 3.81 -46.99 90) (length 5.08)
        (name "PAD" (effects (font (size 1.27 1.27))))
        (number "B0" (effects (font (size 1.27 1.27))))
      )
      (pin power_in line (at -1.27 41.91 270) (length 5.08)
        (name "vdda!" (effects (font (size 1.27 1.27))))
        (number "B21" (effects (font (size 1.27 1.27))))
      )
      (pin power_in line (at -11.43 -46.99 90) (length 5.08)
        (name "gnda!" (effects (font (size 1.27 1.27))))
        (number "B22" (effects (font (size 1.27 1.27))))
      )
      (pin power_in line (at -8.89 -46.99 90) (length 5.08)
        (name "gnda!" (effects (font (size 1.27 1.27))))
        (number "B23" (effects (font (size 1.27 1.27))))
      )
      (pin passive line (at 30.48 11.43 180) (length 5.08)
        (name "VPBias" (effects (font (size 1.27 1.27))))
        (number "B24" (effects (font (size 1.27 1.27))))
      )
      (pin passive line (at 30.48 13.97 180) (length 5.08)
        (name "pamp" (effects (font (size 1.27 1.27))))
        (number "B25" (effects (font (size 1.27 1.27))))
      )
      (pin input line (at -30.48 0 0) (length 5.08)
        (name "blpix" (effects (font (size 1.27 1.27))))
        (number "B26" (effects (font (size 1.27 1.27))))
      )
      (pin no_connect line (at -30.48 -33.02 0) (length 5.08) hide
        (name "NC" (effects (font (size 1.27 1.27))))
        (number "B27" (effects (font (size 1.27 1.27))))
      )
      (pin power_in line (at -6.35 -46.99 90) (length 5.08)
        (name "gnda!" (effects (font (size 1.27 1.27))))
        (number "B28" (effects (font (size 1.27 1.27))))
      )
      (pin power_in line (at 1.27 41.91 270) (length 5.08)
        (name "vdda!" (effects (font (size 1.27 1.27))))
        (number "B29" (effects (font (size 1.27 1.27))))
      )
      (pin power_in line (at -13.97 -46.99 90) (length 5.08)
        (name "gnda!" (effects (font (size 1.27 1.27))))
        (number "B3" (effects (font (size 1.27 1.27))))
      )
      (pin input line (at -30.48 5.08 0) (length 5.08)
        (name "Inj" (effects (font (size 1.27 1.27))))
        (number "B30" (effects (font (size 1.27 1.27))))
      )
      (pin input line (at -30.48 -2.54 0) (length 5.08)
        (name "VCasc2!" (effects (font (size 1.27 1.27))))
        (number "B31" (effects (font (size 1.27 1.27))))
      )
      (pin input line (at -30.48 -5.08 0) (length 5.08)
        (name "ThPix" (effects (font (size 1.27 1.27))))
        (number "B32" (effects (font (size 1.27 1.27))))
      )
      (pin input line (at -30.48 -7.62 0) (length 5.08)
        (name "vminuspix" (effects (font (size 1.27 1.27))))
        (number "B33" (effects (font (size 1.27 1.27))))
      )
      (pin power_in line (at -3.81 -46.99 90) (length 5.08)
        (name "gnda!" (effects (font (size 1.27 1.27))))
        (number "B34" (effects (font (size 1.27 1.27))))
      )
      (pin power_in line (at 3.81 41.91 270) (length 5.08)
        (name "vdda!" (effects (font (size 1.27 1.27))))
        (number "B35" (effects (font (size 1.27 1.27))))
      )
      (pin output line (at 30.48 -13.97 180) (length 5.08)
        (name "SFOut" (effects (font (size 1.27 1.27))))
        (number "B36" (effects (font (size 1.27 1.27))))
      )
      (pin power_in line (at -13.97 41.91 270) (length 5.08)
        (name "vdda_temp" (effects (font (size 1.27 1.27))))
        (number "B37" (effects (font (size 1.27 1.27))))
      )
      (pin power_in line (at -20.32 -46.99 90) (length 5.08)
        (name "gnda_temp" (effects (font (size 1.27 1.27))))
        (number "B38" (effects (font (size 1.27 1.27))))
      )
      (pin output line (at 30.48 -22.86 180) (length 5.08)
        (name "Vtemp1" (effects (font (size 1.27 1.27))))
        (number "B39" (effects (font (size 1.27 1.27))))
      )
      (pin power_in line (at -3.81 41.91 270) (length 5.08)
        (name "vdda!" (effects (font (size 1.27 1.27))))
        (number "B4" (effects (font (size 1.27 1.27))))
      )
      (pin power_in line (at 20.32 -46.99 90) (length 5.08)
        (name "sub" (effects (font (size 1.27 1.27))))
        (number "B40" (effects (font (size 1.27 1.27))))
      )
      (pin power_in line (at 17.78 -46.99 90) (length 5.08)
        (name "subapads" (effects (font (size 1.27 1.27))))
        (number "B41" (effects (font (size 1.27 1.27))))
      )
      (pin power_in line (at 15.24 -46.99 90) (length 5.08)
        (name "ring1" (effects (font (size 1.27 1.27))))
        (number "B42" (effects (font (size 1.27 1.27))))
      )
      (pin power_in line (at 12.7 -46.99 90) (length 5.08)
        (name "ring2" (effects (font (size 1.27 1.27))))
        (number "B43" (effects (font (size 1.27 1.27))))
      )
      (pin power_in line (at 10.16 -46.99 90) (length 5.08)
        (name "ring3" (effects (font (size 1.27 1.27))))
        (number "B44" (effects (font (size 1.27 1.27))))
      )
      (pin power_in line (at 7.62 -46.99 90) (length 5.08)
        (name "ring4" (effects (font (size 1.27 1.27))))
        (number "B45" (effects (font (size 1.27 1.27))))
      )
      (pin power_in line (at -1.27 -46.99 90) (length 5.08)
        (name "Padring1" (effects (font (size 1.27 1.27))))
        (number "Ring1" (effects (font (size 1.27 1.27))))
      )
    )
    (symbol "AstroPix2_split_2_1"
      (rectangle (start -25.4 -13.97) (end 25.4 -35.56)
        (stroke (width 0) (type default) (color 0 0 0 0))
        (fill (type none))
      )
      (rectangle (start -25.4 2.54) (end 25.4 -13.97)
        (stroke (width 0) (type default) (color 0 0 0 0))
        (fill (type none))
      )
      (rectangle (start -25.4 2.54) (end 25.4 10.16)
        (stroke (width 0) (type default) (color 0 0 0 0))
        (fill (type none))
      )
      (rectangle (start -25.4 16.51) (end 25.4 10.16)
        (stroke (width 0) (type default) (color 0 0 0 0))
        (fill (type none))
      )
      (rectangle (start -25.4 31.75) (end 25.4 -66.04)
        (stroke (width 0) (type default) (color 0 0 0 0))
        (fill (type background))
      )
      (polyline
        (pts
          (xy 12.7 13.97)
          (xy 12.7 13.97)
        )
        (stroke (width 0) (type default) (color 0 0 0 0))
        (fill (type none))
      )
      (polyline
        (pts
          (xy 12.7 13.97)
          (xy 12.7 13.97)
        )
        (stroke (width 0) (type default) (color 0 0 0 0))
        (fill (type none))
      )
      (polyline
        (pts
          (xy 12.7 13.97)
          (xy 12.7 13.97)
        )
        (stroke (width 0) (type default) (color 0 0 0 0))
        (fill (type none))
      )
      (polyline
        (pts
          (xy 12.7 13.97)
          (xy 12.7 13.97)
        )
        (stroke (width 0) (type default) (color 0 0 0 0))
        (fill (type none))
      )
      (polyline
        (pts
          (xy 12.7 13.97)
          (xy 12.7 13.97)
        )
        (stroke (width 0) (type default) (color 0 0 0 0))
        (fill (type none))
      )
      (polyline
        (pts
          (xy 21.59 13.97)
          (xy 21.59 13.97)
        )
        (stroke (width 0) (type default) (color 0 0 0 0))
        (fill (type none))
      )
      (text "Clock" (at -1.27 -3.81 0)
        (effects (font (size 2.0066 2.0066)))
      )
      (text "Digital" (at 0 21.59 0)
        (effects (font (size 3.9878 3.9878)))
      )
      (text "Interrupt" (at -1.27 6.35 0)
        (effects (font (size 2.0066 2.0066)))
      )
      (text "Reset" (at -1.27 13.97 0)
        (effects (font (size 2.0066 2.0066)))
      )
      (text "SPI" (at -1.27 -44.45 0)
        (effects (font (size 2.0066 2.0066)))
      )
      (text "SR" (at -1.27 -25.4 0)
        (effects (font (size 2.0066 2.0066)))
      )
      (pin power_in line (at 7.62 -71.12 90) (length 5.08)
        (name "sub" (effects (font (size 1.27 1.27))))
        (number "B1" (effects (font (size 1.27 1.27))))
      )
      (pin input line (at -30.48 13.97 0) (length 5.08)
        (name "res_n" (effects (font (size 1.27 1.27))))
        (number "B10" (effects (font (size 1.27 1.27))))
      )
      (pin input clock (at -30.48 -12.7 0) (length 5.08)
        (name "timestamp_clk" (effects (font (size 1.27 1.27))))
        (number "B11" (effects (font (size 1.27 1.27))))
      )
      (pin output line (at 30.48 7.62 180) (length 5.08)
        (name "hold" (effects (font (size 1.27 1.27))))
        (number "B12" (effects (font (size 1.27 1.27))))
      )
      (pin input clock (at -30.48 -19.05 0) (length 5.08)
        (name "sr_CK1" (effects (font (size 1.27 1.27))))
        (number "B13" (effects (font (size 1.27 1.27))))
      )
      (pin input clock (at -30.48 -21.59 0) (length 5.08)
        (name "sr_CK2" (effects (font (size 1.27 1.27))))
        (number "B14" (effects (font (size 1.27 1.27))))
      )
      (pin input line (at -30.48 -24.13 0) (length 5.08)
        (name "sr_LOAD" (effects (font (size 1.27 1.27))))
        (number "B15" (effects (font (size 1.27 1.27))))
      )
      (pin input line (at -30.48 -26.67 0) (length 5.08)
        (name "sr_SIN" (effects (font (size 1.27 1.27))))
        (number "B16" (effects (font (size 1.27 1.27))))
      )
      (pin input line (at -30.48 -29.21 0) (length 5.08)
        (name "sr_RB" (effects (font (size 1.27 1.27))))
        (number "B17" (effects (font (size 1.27 1.27))))
      )
      (pin output line (at 30.48 -20.32 180) (length 5.08)
        (name "sr_SOUT" (effects (font (size 1.27 1.27))))
        (number "B18" (effects (font (size 1.27 1.27))))
      )
      (pin power_in line (at 1.27 36.83 270) (length 5.08)
        (name "vdd!" (effects (font (size 1.27 1.27))))
        (number "B19" (effects (font (size 1.27 1.27))))
      )
      (pin power_in line (at 5.08 -71.12 90) (length 5.08)
        (name "subdpads" (effects (font (size 1.27 1.27))))
        (number "B2" (effects (font (size 1.27 1.27))))
      )
      (pin power_in line (at -7.62 -71.12 90) (length 5.08)
        (name "gnd!" (effects (font (size 1.27 1.27))))
        (number "B20" (effects (font (size 1.27 1.27))))
      )
      (pin input clock (at -30.48 0 0) (length 5.08)
        (name "sample_clock_p" (effects (font (size 1.27 1.27))))
        (number "B5" (effects (font (size 1.27 1.27))))
      )
      (pin input inverted_clock (at -30.48 -2.54 0) (length 5.08)
        (name "sample_clock_n" (effects (font (size 1.27 1.27))))
        (number "B6" (effects (font (size 1.27 1.27))))
      )
      (pin power_in line (at -1.27 36.83 270) (length 5.08)
        (name "vdd!" (effects (font (size 1.27 1.27))))
        (number "B7" (effects (font (size 1.27 1.27))))
      )
      (pin power_in line (at -5.08 -71.12 90) (length 5.08)
        (name "gnd!" (effects (font (size 1.27 1.27))))
        (number "B8" (effects (font (size 1.27 1.27))))
      )
      (pin open_collector line (at 30.48 5.08 180) (length 5.08)
        (name "interrupt" (effects (font (size 1.27 1.27))))
        (number "B9" (effects (font (size 1.27 1.27))))
      )
      (pin output line (at -30.48 -38.1 0) (length 5.08)
        (name "SPI_left_MISO1" (effects (font (size 1.27 1.27))))
        (number "L1" (effects (font (size 1.27 1.27))))
      )
      (pin output line (at -30.48 -40.64 0) (length 5.08)
        (name "SPI_left_MISO0" (effects (font (size 1.27 1.27))))
        (number "L2" (effects (font (size 1.27 1.27))))
      )
      (pin input line (at -30.48 -43.18 0) (length 5.08)
        (name "SPI_left_MOSI" (effects (font (size 1.27 1.27))))
        (number "L3" (effects (font (size 1.27 1.27))))
      )
      (pin input line (at -30.48 -45.72 0) (length 5.08)
        (name "SPI_left_CLK" (effects (font (size 1.27 1.27))))
        (number "L4" (effects (font (size 1.27 1.27))))
      )
      (pin output line (at -30.48 -48.26 0) (length 5.08)
        (name "SPI_left_CSN" (effects (font (size 1.27 1.27))))
        (number "L5" (effects (font (size 1.27 1.27))))
      )
      (pin input line (at -30.48 -7.62 0) (length 5.08)
        (name "sample_clock_left" (effects (font (size 1.27 1.27))))
        (number "L6" (effects (font (size 1.27 1.27))))
      )
      (pin output line (at 30.48 -7.62 180) (length 5.08)
        (name "sample_clock_right" (effects (font (size 1.27 1.27))))
        (number "R1" (effects (font (size 1.27 1.27))))
      )
      (pin input line (at 30.48 -48.26 180) (length 5.08)
        (name "SPI_right_CSN" (effects (font (size 1.27 1.27))))
        (number "R2" (effects (font (size 1.27 1.27))))
      )
      (pin output line (at 30.48 -45.72 180) (length 5.08)
        (name "SPI_right_CLK" (effects (font (size 1.27 1.27))))
        (number "R3" (effects (font (size 1.27 1.27))))
      )
      (pin output line (at 30.48 -43.18 180) (length 5.08)
        (name "SPI_right_MOSI" (effects (font (size 1.27 1.27))))
        (number "R4" (effects (font (size 1.27 1.27))))
      )
      (pin input line (at 30.48 -40.64 180) (length 5.08)
        (name "SPI_right_MISO0" (effects (font (size 1.27 1.27))))
        (number "R5" (effects (font (size 1.27 1.27))))
      )
      (pin input line (at 30.48 -38.1 180) (length 5.08)
        (name "SPI_right_MISO1" (effects (font (size 1.27 1.27))))
        (number "R6" (effects (font (size 1.27 1.27))))
      )
    )
  )
  (symbol "HV_logo" (pin_names (offset 1.016)) (in_bom yes) (on_board yes)
    (property "Reference" "Logo" (id 0) (at -5.08 3.81 0)
      (effects (font (size 1.27 1.27)))
    )
    (property "Value" "HV_logo" (id 1) (at 0 0 0)
      (effects (font (size 1.27 1.27)))
    )
    (property "Footprint" "astropix:hv" (id 2) (at 0 0 0)
      (effects (font (size 1.27 1.27)) hide)
    )
    (property "Datasheet" "" (id 3) (at 0 0 0)
      (effects (font (size 1.27 1.27)) hide)
    )
    (symbol "HV_logo_0_1"
      (rectangle (start -5.08 2.54) (end 5.08 -2.54)
        (stroke (width 0) (type default) (color 0 0 0 0))
        (fill (type background))
      )
    )
  )
  (symbol "KIT_logo" (pin_names (offset 1.016)) (in_bom yes) (on_board yes)
    (property "Reference" "Logo" (id 0) (at -5.08 3.81 0)
      (effects (font (size 1.27 1.27)))
    )
    (property "Value" "KIT_logo" (id 1) (at 0 0 0)
      (effects (font (size 1.27 1.27)))
    )
    (property "Footprint" "astropix:logo" (id 2) (at 0 0 0)
      (effects (font (size 1.27 1.27)) hide)
    )
    (property "Datasheet" "" (id 3) (at 0 0 0)
      (effects (font (size 1.27 1.27)) hide)
    )
    (symbol "KIT_logo_0_1"
      (rectangle (start -5.08 2.54) (end 5.08 -2.54)
        (stroke (width 0) (type default) (color 0 0 0 0))
        (fill (type background))
      )
    )
  )
  (symbol "MightyPix1_split" (pin_names (offset 1.016)) (in_bom yes) (on_board yes)
    (property "Reference" "U" (id 0) (at -20.32 7.62 0)
      (effects (font (size 1.27 1.27)))
    )
    (property "Value" "MightyPix1_split" (id 1) (at -10.16 3.81 0)
      (effects (font (size 1.27 1.27)))
    )
    (property "Footprint" "astropix:MightyPix1_diffpairs" (id 2) (at -10.16 7.62 0)
      (effects (font (size 1.27 1.27)) hide)
    )
    (property "Datasheet" "" (id 3) (at -16.51 7.62 0)
      (effects (font (size 1.27 1.27)) hide)
    )
    (property "ki_locked" "" (id 4) (at 0 0 0)
      (effects (font (size 1.27 1.27)))
    )
    (symbol "MightyPix1_split_0_1"
      (polyline
        (pts
          (xy 30.48 -45.72)
          (xy 30.48 -45.72)
        )
        (stroke (width 0) (type default) (color 0 0 0 0))
        (fill (type none))
      )
    )
    (symbol "MightyPix1_split_1_1"
      (rectangle (start 0 -35.56) (end 43.18 -44.45)
        (stroke (width 0) (type default) (color 0 0 0 0))
        (fill (type none))
      )
      (rectangle (start 0 -22.86) (end 43.18 -35.56)
        (stroke (width 0) (type default) (color 0 0 0 0))
        (fill (type none))
      )
      (rectangle (start 0 -17.78) (end 43.18 -22.86)
        (stroke (width 0) (type default) (color 0 0 0 0))
        (fill (type none))
      )
      (rectangle (start 0 -12.7) (end 43.18 -17.78)
        (stroke (width 0) (type default) (color 0 0 0 0))
        (fill (type none))
      )
      (polyline
        (pts
          (xy 36.83 -31.75)
          (xy 36.83 -31.75)
        )
        (stroke (width 0) (type default) (color 0 0 0 0))
        (fill (type none))
      )
      (polyline
        (pts
          (xy 36.83 -31.75)
          (xy 36.83 -31.75)
        )
        (stroke (width 0) (type default) (color 0 0 0 0))
        (fill (type none))
      )
      (polyline
        (pts
          (xy 36.83 -31.75)
          (xy 36.83 -31.75)
        )
        (stroke (width 0) (type default) (color 0 0 0 0))
        (fill (type none))
      )
      (polyline
        (pts
          (xy 36.83 -31.75)
          (xy 36.83 -31.75)
        )
        (stroke (width 0) (type default) (color 0 0 0 0))
        (fill (type none))
      )
      (polyline
        (pts
          (xy 36.83 -31.75)
          (xy 36.83 -31.75)
        )
        (stroke (width 0) (type default) (color 0 0 0 0))
        (fill (type none))
      )
      (polyline
        (pts
          (xy 45.72 -31.75)
          (xy 45.72 -31.75)
        )
        (stroke (width 0) (type default) (color 0 0 0 0))
        (fill (type none))
      )
      (rectangle (start 0 0) (end 43.18 -50.8)
        (stroke (width 0) (type default) (color 0 0 0 0))
        (fill (type background))
      )
      (text "Analog" (at 21.59 -8.89 0)
        (effects (font (size 3.9878 3.9878)))
      )
      (text "Analog Out" (at 21.59 -20.32 0)
        (effects (font (size 2.0066 2.0066)))
      )
      (text "HV Bias" (at 21.59 -39.37 0)
        (effects (font (size 2.0066 2.0066)))
      )
      (text "Injection" (at 21.59 -15.24 0)
        (effects (font (size 2.0066 2.0066)))
      )
      (text "V Bias" (at 21.59 -29.21 0)
        (effects (font (size 2.0066 2.0066)))
      )
      (pin input line (at -5.08 -43.18 0) (length 5.08)
        (name "copper_pad" (effects (font (size 1.27 1.27))))
        (number "0" (effects (font (size 1.27 1.27))))
      )
      (pin power_in line (at 17.78 5.08 270) (length 5.08)
        (name "VSSA" (effects (font (size 1.27 1.27))))
        (number "A1" (effects (font (size 1.27 1.27))))
      )
      (pin power_in line (at 22.86 5.08 270) (length 5.08)
        (name "VDDA" (effects (font (size 1.27 1.27))))
        (number "B1" (effects (font (size 1.27 1.27))))
      )
      (pin input line (at -5.08 -15.24 0) (length 5.08)
        (name "inj" (effects (font (size 1.27 1.27))))
        (number "B40" (effects (font (size 1.27 1.27))))
      )
      (pin output line (at 48.26 -20.32 180) (length 5.08)
        (name "ampout" (effects (font (size 1.27 1.27))))
        (number "B41" (effects (font (size 1.27 1.27))))
      )
      (pin bidirectional line (at -5.08 -25.4 0) (length 5.08)
        (name "vminuspix" (effects (font (size 1.27 1.27))))
        (number "B42" (effects (font (size 1.27 1.27))))
      )
      (pin bidirectional line (at -5.08 -27.94 0) (length 5.08)
        (name "thfine" (effects (font (size 1.27 1.27))))
        (number "B43" (effects (font (size 1.27 1.27))))
      )
      (pin bidirectional line (at -5.08 -30.48 0) (length 5.08)
        (name "blpix" (effects (font (size 1.27 1.27))))
        (number "B44" (effects (font (size 1.27 1.27))))
      )
      (pin bidirectional line (at -5.08 -33.02 0) (length 5.08)
        (name "thpix" (effects (font (size 1.27 1.27))))
        (number "B45" (effects (font (size 1.27 1.27))))
      )
      (pin power_in line (at 21.59 -55.88 90) (length 5.08)
        (name "GNDA" (effects (font (size 1.27 1.27))))
        (number "B46" (effects (font (size 1.27 1.27))))
      )
      (pin power_in line (at -5.08 -38.1 0) (length 5.08)
        (name "SUBCHIP" (effects (font (size 1.27 1.27))))
        (number "B47" (effects (font (size 1.27 1.27))))
      )
      (pin power_in line (at -5.08 -40.64 0) (length 5.08)
        (name "SUBPIXEL" (effects (font (size 1.27 1.27))))
        (number "B48" (effects (font (size 1.27 1.27))))
      )
      (pin power_in line (at 20.32 5.08 270) (length 5.08)
        (name "VSSA" (effects (font (size 1.27 1.27))))
        (number "C1" (effects (font (size 1.27 1.27))))
      )
      (pin power_in line (at 25.4 5.08 270) (length 5.08)
        (name "VDDA" (effects (font (size 1.27 1.27))))
        (number "C2" (effects (font (size 1.27 1.27))))
      )
    )
    (symbol "MightyPix1_split_2_1"
      (rectangle (start 0 -115.57) (end 43.18 -120.65)
        (stroke (width 0) (type default) (color 0 0 0 0))
        (fill (type none))
      )
      (rectangle (start 0 -97.79) (end 43.18 -115.57)
        (stroke (width 0) (type default) (color 0 0 0 0))
        (fill (type none))
      )
      (rectangle (start 0 -80.01) (end 43.18 -97.79)
        (stroke (width 0) (type default) (color 0 0 0 0))
        (fill (type none))
      )
      (rectangle (start 0 -52.07) (end 43.18 -80.01)
        (stroke (width 0) (type default) (color 0 0 0 0))
        (fill (type none))
      )
      (rectangle (start 0 -46.99) (end 43.18 -52.07)
        (stroke (width 0) (type default) (color 0 0 0 0))
        (fill (type none))
      )
      (rectangle (start 0 -39.37) (end 43.18 -46.99)
        (stroke (width 0) (type default) (color 0 0 0 0))
        (fill (type none))
      )
      (rectangle (start 0 -26.67) (end 43.18 -39.37)
        (stroke (width 0) (type default) (color 0 0 0 0))
        (fill (type none))
      )
      (rectangle (start 0 -13.97) (end 43.18 -26.67)
        (stroke (width 0) (type default) (color 0 0 0 0))
        (fill (type none))
      )
      (polyline
        (pts
          (xy 34.29 -16.51)
          (xy 34.29 -16.51)
        )
        (stroke (width 0) (type default) (color 0 0 0 0))
        (fill (type none))
      )
      (polyline
        (pts
          (xy 34.29 -16.51)
          (xy 34.29 -16.51)
        )
        (stroke (width 0) (type default) (color 0 0 0 0))
        (fill (type none))
      )
      (polyline
        (pts
          (xy 34.29 -16.51)
          (xy 34.29 -16.51)
        )
        (stroke (width 0) (type default) (color 0 0 0 0))
        (fill (type none))
      )
      (polyline
        (pts
          (xy 34.29 -16.51)
          (xy 34.29 -16.51)
        )
        (stroke (width 0) (type default) (color 0 0 0 0))
        (fill (type none))
      )
      (polyline
        (pts
          (xy 34.29 -16.51)
          (xy 34.29 -16.51)
        )
        (stroke (width 0) (type default) (color 0 0 0 0))
        (fill (type none))
      )
      (polyline
        (pts
          (xy 43.18 -16.51)
          (xy 43.18 -16.51)
        )
        (stroke (width 0) (type default) (color 0 0 0 0))
        (fill (type none))
      )
      (rectangle (start 0 0) (end 43.18 -127)
        (stroke (width 0) (type default) (color 0 0 0 0))
        (fill (type background))
      )
      (text "Clock" (at 21.59 -33.02 0)
        (effects (font (size 2.0066 2.0066)))
      )
      (text "Data" (at 21.59 -106.68 0)
        (effects (font (size 2.0066 2.0066)))
      )
      (text "Digital" (at 21.59 -8.89 0)
        (effects (font (size 3.9878 3.9878)))
      )
      (text "Hitbus" (at 21.59 -118.11 0)
        (effects (font (size 2.0066 2.0066)))
      )
      (text "I2C" (at 21.59 -20.32 0)
        (effects (font (size 2.0066 2.0066)))
      )
      (text "PLL" (at 21.59 -88.9 0)
        (effects (font (size 2.0066 2.0066)))
      )
      (text "Reset" (at 21.59 -49.53 0)
        (effects (font (size 2.0066 2.0066)))
      )
      (text "SR" (at 21.59 -62.23 0)
        (effects (font (size 2.0066 2.0066)))
      )
      (text "TFC" (at 21.59 -43.18 0)
        (effects (font (size 2.0066 2.0066)))
      )
      (pin power_in line (at 20.32 5.08 270) (length 5.08)
        (name "VDD" (effects (font (size 1.27 1.27))))
        (number "A2" (effects (font (size 1.27 1.27))))
      )
      (pin input line (at -5.08 -41.91 0) (length 5.08)
        (name "TFC_P" (effects (font (size 1.27 1.27))))
        (number "B10" (effects (font (size 1.27 1.27))))
      )
      (pin input line (at -5.08 -44.45 0) (length 5.08)
        (name "TFC_N" (effects (font (size 1.27 1.27))))
        (number "B11" (effects (font (size 1.27 1.27))))
      )
      (pin input line (at -5.08 -49.53 0) (length 5.08)
        (name "res_n" (effects (font (size 1.27 1.27))))
        (number "B12" (effects (font (size 1.27 1.27))))
      )
      (pin input line (at -5.08 -57.15 0) (length 5.08)
        (name "SR_I2Cmux" (effects (font (size 1.27 1.27))))
        (number "B13" (effects (font (size 1.27 1.27))))
      )
      (pin input line (at -5.08 -59.69 0) (length 5.08)
        (name "CSIn" (effects (font (size 1.27 1.27))))
        (number "B14" (effects (font (size 1.27 1.27))))
      )
      (pin input line (at -5.08 -62.23 0) (length 5.08)
        (name "CLd" (effects (font (size 1.27 1.27))))
        (number "B15" (effects (font (size 1.27 1.27))))
      )
      (pin input line (at -5.08 -64.77 0) (length 5.08)
        (name "CLd2" (effects (font (size 1.27 1.27))))
        (number "B16" (effects (font (size 1.27 1.27))))
      )
      (pin input line (at -5.08 -67.31 0) (length 5.08)
        (name "CLd3" (effects (font (size 1.27 1.27))))
        (number "B17" (effects (font (size 1.27 1.27))))
      )
      (pin input line (at -5.08 -69.85 0) (length 5.08)
        (name "CCk1" (effects (font (size 1.27 1.27))))
        (number "B18" (effects (font (size 1.27 1.27))))
      )
      (pin input line (at -5.08 -72.39 0) (length 5.08)
        (name "CCk2" (effects (font (size 1.27 1.27))))
        (number "B19" (effects (font (size 1.27 1.27))))
      )
      (pin input line (at -5.08 -16.51 0) (length 5.08)
        (name "I2C_ID1" (effects (font (size 1.27 1.27))))
        (number "B2" (effects (font (size 1.27 1.27))))
      )
      (pin input line (at -5.08 -82.55 0) (length 5.08)
        (name "CkRef_P" (effects (font (size 1.27 1.27))))
        (number "B20" (effects (font (size 1.27 1.27))))
      )
      (pin input line (at -5.08 -85.09 0) (length 5.08)
        (name "CkRef_N" (effects (font (size 1.27 1.27))))
        (number "B21" (effects (font (size 1.27 1.27))))
      )
      (pin input line (at -5.08 -34.29 0) (length 5.08)
        (name "CkExt_P" (effects (font (size 1.27 1.27))))
        (number "B22" (effects (font (size 1.27 1.27))))
      )
      (pin input line (at -5.08 -36.83 0) (length 5.08)
        (name "CkExt_N" (effects (font (size 1.27 1.27))))
        (number "B23" (effects (font (size 1.27 1.27))))
      )
      (pin power_in line (at -5.08 -87.63 0) (length 5.08)
        (name "VLow" (effects (font (size 1.27 1.27))))
        (number "B24" (effects (font (size 1.27 1.27))))
      )
      (pin power_in line (at -5.08 -90.17 0) (length 5.08)
        (name "VHigh" (effects (font (size 1.27 1.27))))
        (number "B25" (effects (font (size 1.27 1.27))))
      )
      (pin bidirectional line (at -5.08 -92.71 0) (length 5.08)
        (name "NotToVCO" (effects (font (size 1.27 1.27))))
        (number "B26" (effects (font (size 1.27 1.27))))
      )
      (pin bidirectional line (at -5.08 -95.25 0) (length 5.08)
        (name "ToVCO" (effects (font (size 1.27 1.27))))
        (number "B27" (effects (font (size 1.27 1.27))))
      )
      (pin output line (at 48.26 -100.33 180) (length 5.08)
        (name "DataOutB_N" (effects (font (size 1.27 1.27))))
        (number "B28" (effects (font (size 1.27 1.27))))
      )
      (pin output line (at 48.26 -102.87 180) (length 5.08)
        (name "DataOutB_P" (effects (font (size 1.27 1.27))))
        (number "B29" (effects (font (size 1.27 1.27))))
      )
      (pin input line (at -5.08 -19.05 0) (length 5.08)
        (name "I2C_ID2" (effects (font (size 1.27 1.27))))
        (number "B3" (effects (font (size 1.27 1.27))))
      )
      (pin output line (at 48.26 -105.41 180) (length 5.08)
        (name "DataOutA_N" (effects (font (size 1.27 1.27))))
        (number "B30" (effects (font (size 1.27 1.27))))
      )
      (pin output line (at 48.26 -107.95 180) (length 5.08)
        (name "DataOutA_P" (effects (font (size 1.27 1.27))))
        (number "B31" (effects (font (size 1.27 1.27))))
      )
      (pin output line (at 48.26 -110.49 180) (length 5.08)
        (name "DataOutC_N" (effects (font (size 1.27 1.27))))
        (number "B32" (effects (font (size 1.27 1.27))))
      )
      (pin output line (at 48.26 -113.03 180) (length 5.08)
        (name "DataOutC_P" (effects (font (size 1.27 1.27))))
        (number "B33" (effects (font (size 1.27 1.27))))
      )
      (pin output line (at 48.26 -82.55 180) (length 5.08)
        (name "Vctr_cpll" (effects (font (size 1.27 1.27))))
        (number "B34" (effects (font (size 1.27 1.27))))
      )
      (pin power_in line (at 21.59 -132.08 90) (length 5.08)
        (name "GND" (effects (font (size 1.27 1.27))))
        (number "B35" (effects (font (size 1.27 1.27))))
      )
      (pin power_in line (at 22.86 5.08 270) (length 5.08)
        (name "VDD" (effects (font (size 1.27 1.27))))
        (number "B36" (effects (font (size 1.27 1.27))))
      )
      (pin input line (at -5.08 -74.93 0) (length 5.08)
        (name "Ck1" (effects (font (size 1.27 1.27))))
        (number "B37" (effects (font (size 1.27 1.27))))
      )
      (pin input line (at -5.08 -77.47 0) (length 5.08)
        (name "Ck2" (effects (font (size 1.27 1.27))))
        (number "B38" (effects (font (size 1.27 1.27))))
      )
      (pin output line (at 48.26 -118.11 180) (length 5.08)
        (name "hbout" (effects (font (size 1.27 1.27))))
        (number "B39" (effects (font (size 1.27 1.27))))
      )
      (pin open_collector line (at -5.08 -21.59 0) (length 5.08)
        (name "I2C_SCL" (effects (font (size 1.27 1.27))))
        (number "B4" (effects (font (size 1.27 1.27))))
      )
      (pin open_collector line (at -5.08 -24.13 0) (length 5.08)
        (name "I2C_SDA" (effects (font (size 1.27 1.27))))
        (number "B5" (effects (font (size 1.27 1.27))))
      )
      (pin output line (at 48.26 -54.61 180) (length 5.08)
        (name "SOutTDAC" (effects (font (size 1.27 1.27))))
        (number "B6" (effects (font (size 1.27 1.27))))
      )
      (pin input line (at -5.08 -54.61 0) (length 5.08)
        (name "CRb" (effects (font (size 1.27 1.27))))
        (number "B7" (effects (font (size 1.27 1.27))))
      )
      (pin input line (at -5.08 -29.21 0) (length 5.08)
        (name "CLK40M_P" (effects (font (size 1.27 1.27))))
        (number "B8" (effects (font (size 1.27 1.27))))
      )
      (pin input line (at -5.08 -31.75 0) (length 5.08)
        (name "CLK40M_N" (effects (font (size 1.27 1.27))))
        (number "B9" (effects (font (size 1.27 1.27))))
      )
    )
  )
  (symbol "SN65LVDS4" (pin_names (offset 1.016)) (in_bom yes) (on_board yes)
    (property "Reference" "U" (id 0) (at -11.43 10.16 0)
      (effects (font (size 1.27 1.27)))
    )
    (property "Value" "SN65LVDS4" (id 1) (at 10.16 -10.16 0)
      (effects (font (size 1.27 1.27)))
    )
    (property "Footprint" "Package_DFN_QFN:Texas_R-PUQFN-N10" (id 2) (at 0 0 0)
      (effects (font (size 1.27 1.27)) hide)
    )
    (property "Datasheet" "" (id 3) (at 0 0 0)
      (effects (font (size 1.27 1.27)) hide)
    )
    (symbol "SN65LVDS4_1_1"
      (rectangle (start -11.43 7.62) (end 10.16 -7.62)
        (stroke (width 0.254) (type default) (color 0 0 0 0))
        (fill (type background))
      )
      (circle (center -5.08 -1.905) (radius 0.508)
        (stroke (width 0) (type default) (color 0 0 0 0))
        (fill (type none))
      )
      (polyline
        (pts
          (xy -7.62 -1.905)
          (xy -5.715 -1.905)
        )
        (stroke (width 0) (type default) (color 0 0 0 0))
        (fill (type none))
      )
      (polyline
        (pts
          (xy -7.62 1.905)
          (xy -4.445 1.905)
        )
        (stroke (width 0) (type default) (color 0 0 0 0))
        (fill (type none))
      )
      (polyline
        (pts
          (xy -3.81 1.27)
          (xy -3.81 1.27)
        )
        (stroke (width 0) (type default) (color 0 0 0 0))
        (fill (type none))
      )
      (polyline
        (pts
          (xy 5.08 0)
          (xy 3.175 0)
        )
        (stroke (width 0) (type default) (color 0 0 0 0))
        (fill (type none))
      )
      (polyline
        (pts
          (xy -4.445 -3.81)
          (xy -4.445 3.81)
          (xy 3.175 0)
          (xy -4.445 -3.81)
        )
        (stroke (width 0.254) (type default) (color 0 0 0 0))
        (fill (type none))
      )
      (text "R" (at -1.905 0 0)
        (effects (font (size 1.524 1.524)))
      )
      (pin power_in line (at -1.27 -10.16 90) (length 2.54)
        (name "GND" (effects (font (size 1.27 1.27))))
        (number "1" (effects (font (size 1.27 1.27))))
      )
      (pin power_in line (at -1.27 10.16 270) (length 2.54)
        (name "VDD" (effects (font (size 1.27 1.27))))
        (number "10" (effects (font (size 1.27 1.27))))
      )
      (pin input line (at -13.97 2.54 0) (length 2.54)
        (name "IN+" (effects (font (size 1.27 1.27))))
        (number "2" (effects (font (size 1.27 1.27))))
      )
      (pin input line (at -13.97 -2.54 0) (length 2.54)
        (name "IN-" (effects (font (size 1.27 1.27))))
        (number "3" (effects (font (size 1.27 1.27))))
      )
      (pin no_connect line (at -8.89 -10.16 90) (length 2.54) hide
        (name "NC" (effects (font (size 1.27 1.27))))
        (number "4" (effects (font (size 1.27 1.27))))
      )
      (pin power_in line (at 1.27 10.16 270) (length 2.54)
        (name "VCC" (effects (font (size 1.27 1.27))))
        (number "5" (effects (font (size 1.27 1.27))))
      )
      (pin no_connect line (at -7.62 -10.16 90) (length 2.54) hide
        (name "NC" (effects (font (size 1.27 1.27))))
        (number "6" (effects (font (size 1.27 1.27))))
      )
      (pin power_in line (at 1.27 -10.16 90) (length 2.54)
        (name "GND" (effects (font (size 1.27 1.27))))
        (number "7" (effects (font (size 1.27 1.27))))
      )
      (pin output line (at 12.7 0 180) (length 2.54)
        (name "OUT" (effects (font (size 1.27 1.27))))
        (number "8" (effects (font (size 1.27 1.27))))
      )
      (pin no_connect line (at -6.35 -10.16 90) (length 2.54) hide
        (name "NC" (effects (font (size 1.27 1.27))))
        (number "9" (effects (font (size 1.27 1.27))))
      )
    )
  )
  (symbol "bonder" (pin_names (offset 1.016)) (in_bom yes) (on_board yes)
    (property "Reference" "H" (id 0) (at -2.54 3.81 0)
      (effects (font (size 1.27 1.27)))
    )
    (property "Value" "bonder" (id 1) (at 0 0 0)
      (effects (font (size 1.27 1.27)))
    )
    (property "Footprint" "astropix:bonder" (id 2) (at 0 0 0)
      (effects (font (size 1.27 1.27)) hide)
    )
    (property "Datasheet" "" (id 3) (at 0 0 0)
      (effects (font (size 1.27 1.27)) hide)
    )
    (symbol "bonder_0_1"
      (rectangle (start -3.81 2.54) (end 3.81 -2.54)
        (stroke (width 0) (type default) (color 0 0 0 0))
        (fill (type background))
      )
    )
  )
  (symbol "pcie_GECCO" (pin_names (offset 1.016)) (in_bom yes) (on_board yes)
    (property "Reference" "J" (id 0) (at -17.78 62.23 0)
      (effects (font (size 1.27 1.27)))
    )
    (property "Value" "pcie_GECCO" (id 1) (at 19.05 -71.12 0)
      (effects (font (size 1.27 1.27)))
    )
    (property "Footprint" "astropix:pcie_astropix" (id 2) (at 15.24 0 0)
      (effects (font (size 1.27 1.27)) hide)
    )
    (property "Datasheet" "" (id 3) (at 15.24 0 0)
      (effects (font (size 1.27 1.27)) hide)
    )
    (symbol "pcie_GECCO_0_0"
      (text "Card 1" (at 0 24.13 0)
        (effects (font (size 2.0066 2.0066)))
      )
    )
    (symbol "pcie_GECCO_0_1"
      (polyline
        (pts
          (xy -19.05 -43.18)
          (xy 17.78 -43.18)
        )
        (stroke (width 0) (type default) (color 0 0 0 0))
        (fill (type none))
      )
      (polyline
        (pts
          (xy -19.05 -33.02)
          (xy 17.78 -33.02)
        )
        (stroke (width 0) (type default) (color 0 0 0 0))
        (fill (type none))
      )
      (polyline
        (pts
          (xy -19.05 -22.86)
          (xy 17.78 -22.86)
        )
        (stroke (width 0) (type default) (color 0 0 0 0))
        (fill (type none))
      )
      (polyline
        (pts
          (xy -19.05 -12.7)
          (xy 17.78 -12.7)
        )
        (stroke (width 0) (type default) (color 0 0 0 0))
        (fill (type none))
      )
      (polyline
        (pts
          (xy -19.05 -2.54)
          (xy 17.78 -2.54)
        )
        (stroke (width 0) (type default) (color 0 0 0 0))
        (fill (type none))
      )
      (polyline
        (pts
          (xy -19.05 17.78)
          (xy 17.78 17.78)
        )
        (stroke (width 0) (type default) (color 0 0 0 0))
        (fill (type none))
      )
      (polyline
        (pts
          (xy -19.05 29.21)
          (xy 17.78 29.21)
        )
        (stroke (width 0) (type default) (color 0 0 0 0))
        (fill (type none))
      )
    )
    (symbol "pcie_GECCO_1_1"
      (rectangle (start -19.05 -67.183) (end -17.78 -67.437)
        (stroke (width 0.1524) (type default) (color 0 0 0 0))
        (fill (type none))
      )
      (rectangle (start -19.05 -64.643) (end -17.78 -64.897)
        (stroke (width 0.1524) (type default) (color 0 0 0 0))
        (fill (type none))
      )
      (rectangle (start -19.05 -62.103) (end -17.78 -62.357)
        (stroke (width 0.1524) (type default) (color 0 0 0 0))
        (fill (type none))
      )
      (rectangle (start -19.05 -59.563) (end -17.78 -59.817)
        (stroke (width 0.1524) (type default) (color 0 0 0 0))
        (fill (type none))
      )
      (rectangle (start -19.05 -57.023) (end -17.78 -57.277)
        (stroke (width 0.1524) (type default) (color 0 0 0 0))
        (fill (type none))
      )
      (rectangle (start -19.05 -54.483) (end -17.78 -54.737)
        (stroke (width 0.1524) (type default) (color 0 0 0 0))
        (fill (type none))
      )
      (rectangle (start -19.05 -51.943) (end -17.78 -52.197)
        (stroke (width 0.1524) (type default) (color 0 0 0 0))
        (fill (type none))
      )
      (rectangle (start -19.05 -49.403) (end -17.78 -49.657)
        (stroke (width 0.1524) (type default) (color 0 0 0 0))
        (fill (type none))
      )
      (rectangle (start -19.05 -46.863) (end -17.78 -47.117)
        (stroke (width 0.1524) (type default) (color 0 0 0 0))
        (fill (type none))
      )
      (rectangle (start -19.05 -44.323) (end -17.78 -44.577)
        (stroke (width 0.1524) (type default) (color 0 0 0 0))
        (fill (type none))
      )
      (rectangle (start -19.05 -41.783) (end -17.78 -42.037)
        (stroke (width 0.1524) (type default) (color 0 0 0 0))
        (fill (type none))
      )
      (rectangle (start -19.05 -39.243) (end -17.78 -39.497)
        (stroke (width 0.1524) (type default) (color 0 0 0 0))
        (fill (type none))
      )
      (rectangle (start -19.05 -36.703) (end -17.78 -36.957)
        (stroke (width 0.1524) (type default) (color 0 0 0 0))
        (fill (type none))
      )
      (rectangle (start -19.05 -34.163) (end -17.78 -34.417)
        (stroke (width 0.1524) (type default) (color 0 0 0 0))
        (fill (type none))
      )
      (rectangle (start -19.05 -31.623) (end -17.78 -31.877)
        (stroke (width 0.1524) (type default) (color 0 0 0 0))
        (fill (type none))
      )
      (rectangle (start -19.05 -29.083) (end -17.78 -29.337)
        (stroke (width 0.1524) (type default) (color 0 0 0 0))
        (fill (type none))
      )
      (rectangle (start -19.05 -26.543) (end -17.78 -26.797)
        (stroke (width 0.1524) (type default) (color 0 0 0 0))
        (fill (type none))
      )
      (rectangle (start -19.05 -24.003) (end -17.78 -24.257)
        (stroke (width 0.1524) (type default) (color 0 0 0 0))
        (fill (type none))
      )
      (rectangle (start -19.05 -21.463) (end -17.78 -21.717)
        (stroke (width 0.1524) (type default) (color 0 0 0 0))
        (fill (type none))
      )
      (rectangle (start -19.05 -18.923) (end -17.78 -19.177)
        (stroke (width 0.1524) (type default) (color 0 0 0 0))
        (fill (type none))
      )
      (rectangle (start -19.05 -16.383) (end -17.78 -16.637)
        (stroke (width 0.1524) (type default) (color 0 0 0 0))
        (fill (type none))
      )
      (rectangle (start -19.05 -13.843) (end -17.78 -14.097)
        (stroke (width 0.1524) (type default) (color 0 0 0 0))
        (fill (type none))
      )
      (rectangle (start -19.05 -11.303) (end -17.78 -11.557)
        (stroke (width 0.1524) (type default) (color 0 0 0 0))
        (fill (type none))
      )
      (rectangle (start -19.05 -8.763) (end -17.78 -9.017)
        (stroke (width 0.1524) (type default) (color 0 0 0 0))
        (fill (type none))
      )
      (rectangle (start -19.05 -6.223) (end -17.78 -6.477)
        (stroke (width 0.1524) (type default) (color 0 0 0 0))
        (fill (type none))
      )
      (rectangle (start -19.05 -3.683) (end -17.78 -3.937)
        (stroke (width 0.1524) (type default) (color 0 0 0 0))
        (fill (type none))
      )
      (rectangle (start -19.05 -1.143) (end -17.78 -1.397)
        (stroke (width 0.1524) (type default) (color 0 0 0 0))
        (fill (type none))
      )
      (rectangle (start -19.05 1.397) (end -17.78 1.143)
        (stroke (width 0.1524) (type default) (color 0 0 0 0))
        (fill (type none))
      )
      (rectangle (start -19.05 3.937) (end -17.78 3.683)
        (stroke (width 0.1524) (type default) (color 0 0 0 0))
        (fill (type none))
      )
      (rectangle (start -19.05 6.477) (end -17.78 6.223)
        (stroke (width 0.1524) (type default) (color 0 0 0 0))
        (fill (type none))
      )
      (rectangle (start -19.05 9.017) (end -17.78 8.763)
        (stroke (width 0.1524) (type default) (color 0 0 0 0))
        (fill (type none))
      )
      (rectangle (start -19.05 11.557) (end -17.78 11.303)
        (stroke (width 0.1524) (type default) (color 0 0 0 0))
        (fill (type none))
      )
      (rectangle (start -19.05 14.097) (end -17.78 13.843)
        (stroke (width 0.1524) (type default) (color 0 0 0 0))
        (fill (type none))
      )
      (rectangle (start -19.05 16.637) (end -17.78 16.383)
        (stroke (width 0.1524) (type default) (color 0 0 0 0))
        (fill (type none))
      )
      (rectangle (start -19.05 19.177) (end -17.78 18.923)
        (stroke (width 0.1524) (type default) (color 0 0 0 0))
        (fill (type none))
      )
      (rectangle (start -19.05 21.717) (end -17.78 21.463)
        (stroke (width 0.1524) (type default) (color 0 0 0 0))
        (fill (type none))
      )
      (rectangle (start -19.05 24.257) (end -17.78 24.003)
        (stroke (width 0.1524) (type default) (color 0 0 0 0))
        (fill (type none))
      )
      (rectangle (start -19.05 26.797) (end -17.78 26.543)
        (stroke (width 0.1524) (type default) (color 0 0 0 0))
        (fill (type none))
      )
      (rectangle (start -19.05 31.877) (end -17.78 31.623)
        (stroke (width 0.1524) (type default) (color 0 0 0 0))
        (fill (type none))
      )
      (rectangle (start -19.05 34.417) (end -17.78 34.163)
        (stroke (width 0.1524) (type default) (color 0 0 0 0))
        (fill (type none))
      )
      (rectangle (start -19.05 36.957) (end -17.78 36.703)
        (stroke (width 0.1524) (type default) (color 0 0 0 0))
        (fill (type none))
      )
      (rectangle (start -19.05 39.497) (end -17.78 39.243)
        (stroke (width 0.1524) (type default) (color 0 0 0 0))
        (fill (type none))
      )
      (rectangle (start -19.05 42.037) (end -17.78 41.783)
        (stroke (width 0.1524) (type default) (color 0 0 0 0))
        (fill (type none))
      )
      (rectangle (start -19.05 44.577) (end -17.78 44.323)
        (stroke (width 0.1524) (type default) (color 0 0 0 0))
        (fill (type none))
      )
      (rectangle (start -19.05 47.117) (end -17.78 46.863)
        (stroke (width 0.1524) (type default) (color 0 0 0 0))
        (fill (type none))
      )
      (rectangle (start -19.05 49.657) (end -17.78 49.403)
        (stroke (width 0.1524) (type default) (color 0 0 0 0))
        (fill (type none))
      )
      (rectangle (start -19.05 52.197) (end -17.78 51.943)
        (stroke (width 0.1524) (type default) (color 0 0 0 0))
        (fill (type none))
      )
      (rectangle (start -19.05 54.737) (end -17.78 54.483)
        (stroke (width 0.1524) (type default) (color 0 0 0 0))
        (fill (type none))
      )
      (rectangle (start -19.05 57.277) (end -17.78 57.023)
        (stroke (width 0.1524) (type default) (color 0 0 0 0))
        (fill (type none))
      )
      (rectangle (start -19.05 58.42) (end 17.78 -68.58)
        (stroke (width 0.254) (type default) (color 0 0 0 0))
        (fill (type background))
      )
      (rectangle (start 17.78 -67.183) (end 16.51 -67.437)
        (stroke (width 0.1524) (type default) (color 0 0 0 0))
        (fill (type none))
      )
      (rectangle (start 17.78 -64.643) (end 16.51 -64.897)
        (stroke (width 0.1524) (type default) (color 0 0 0 0))
        (fill (type none))
      )
      (rectangle (start 17.78 -62.103) (end 16.51 -62.357)
        (stroke (width 0.1524) (type default) (color 0 0 0 0))
        (fill (type none))
      )
      (rectangle (start 17.78 -59.563) (end 16.51 -59.817)
        (stroke (width 0.1524) (type default) (color 0 0 0 0))
        (fill (type none))
      )
      (rectangle (start 17.78 -57.023) (end 16.51 -57.277)
        (stroke (width 0.1524) (type default) (color 0 0 0 0))
        (fill (type none))
      )
      (rectangle (start 17.78 -54.483) (end 16.51 -54.737)
        (stroke (width 0.1524) (type default) (color 0 0 0 0))
        (fill (type none))
      )
      (rectangle (start 17.78 -51.943) (end 16.51 -52.197)
        (stroke (width 0.1524) (type default) (color 0 0 0 0))
        (fill (type none))
      )
      (rectangle (start 17.78 -49.403) (end 16.51 -49.657)
        (stroke (width 0.1524) (type default) (color 0 0 0 0))
        (fill (type none))
      )
      (rectangle (start 17.78 -46.863) (end 16.51 -47.117)
        (stroke (width 0.1524) (type default) (color 0 0 0 0))
        (fill (type none))
      )
      (rectangle (start 17.78 -44.323) (end 16.51 -44.577)
        (stroke (width 0.1524) (type default) (color 0 0 0 0))
        (fill (type none))
      )
      (rectangle (start 17.78 -41.783) (end 16.51 -42.037)
        (stroke (width 0.1524) (type default) (color 0 0 0 0))
        (fill (type none))
      )
      (rectangle (start 17.78 -39.243) (end 16.51 -39.497)
        (stroke (width 0.1524) (type default) (color 0 0 0 0))
        (fill (type none))
      )
      (rectangle (start 17.78 -36.703) (end 16.51 -36.957)
        (stroke (width 0.1524) (type default) (color 0 0 0 0))
        (fill (type none))
      )
      (rectangle (start 17.78 -34.163) (end 16.51 -34.417)
        (stroke (width 0.1524) (type default) (color 0 0 0 0))
        (fill (type none))
      )
      (rectangle (start 17.78 -31.623) (end 16.51 -31.877)
        (stroke (width 0.1524) (type default) (color 0 0 0 0))
        (fill (type none))
      )
      (rectangle (start 17.78 -29.083) (end 16.51 -29.337)
        (stroke (width 0.1524) (type default) (color 0 0 0 0))
        (fill (type none))
      )
      (rectangle (start 17.78 -26.543) (end 16.51 -26.797)
        (stroke (width 0.1524) (type default) (color 0 0 0 0))
        (fill (type none))
      )
      (rectangle (start 17.78 -24.003) (end 16.51 -24.257)
        (stroke (width 0.1524) (type default) (color 0 0 0 0))
        (fill (type none))
      )
      (rectangle (start 17.78 -21.463) (end 16.51 -21.717)
        (stroke (width 0.1524) (type default) (color 0 0 0 0))
        (fill (type none))
      )
      (rectangle (start 17.78 -18.923) (end 16.51 -19.177)
        (stroke (width 0.1524) (type default) (color 0 0 0 0))
        (fill (type none))
      )
      (rectangle (start 17.78 -16.383) (end 16.51 -16.637)
        (stroke (width 0.1524) (type default) (color 0 0 0 0))
        (fill (type none))
      )
      (rectangle (start 17.78 -13.843) (end 16.51 -14.097)
        (stroke (width 0.1524) (type default) (color 0 0 0 0))
        (fill (type none))
      )
      (rectangle (start 17.78 -11.303) (end 16.51 -11.557)
        (stroke (width 0.1524) (type default) (color 0 0 0 0))
        (fill (type none))
      )
      (rectangle (start 17.78 -8.763) (end 16.51 -9.017)
        (stroke (width 0.1524) (type default) (color 0 0 0 0))
        (fill (type none))
      )
      (rectangle (start 17.78 -6.223) (end 16.51 -6.477)
        (stroke (width 0.1524) (type default) (color 0 0 0 0))
        (fill (type none))
      )
      (rectangle (start 17.78 -3.683) (end 16.51 -3.937)
        (stroke (width 0.1524) (type default) (color 0 0 0 0))
        (fill (type none))
      )
      (rectangle (start 17.78 -1.143) (end 16.51 -1.397)
        (stroke (width 0.1524) (type default) (color 0 0 0 0))
        (fill (type none))
      )
      (rectangle (start 17.78 1.397) (end 16.51 1.143)
        (stroke (width 0.1524) (type default) (color 0 0 0 0))
        (fill (type none))
      )
      (rectangle (start 17.78 3.937) (end 16.51 3.683)
        (stroke (width 0.1524) (type default) (color 0 0 0 0))
        (fill (type none))
      )
      (rectangle (start 17.78 6.477) (end 16.51 6.223)
        (stroke (width 0.1524) (type default) (color 0 0 0 0))
        (fill (type none))
      )
      (rectangle (start 17.78 9.017) (end 16.51 8.763)
        (stroke (width 0.1524) (type default) (color 0 0 0 0))
        (fill (type none))
      )
      (rectangle (start 17.78 11.557) (end 16.51 11.303)
        (stroke (width 0.1524) (type default) (color 0 0 0 0))
        (fill (type none))
      )
      (rectangle (start 17.78 14.097) (end 16.51 13.843)
        (stroke (width 0.1524) (type default) (color 0 0 0 0))
        (fill (type none))
      )
      (rectangle (start 17.78 16.637) (end 16.51 16.383)
        (stroke (width 0.1524) (type default) (color 0 0 0 0))
        (fill (type none))
      )
      (rectangle (start 17.78 19.177) (end 16.51 18.923)
        (stroke (width 0.1524) (type default) (color 0 0 0 0))
        (fill (type none))
      )
      (rectangle (start 17.78 21.717) (end 16.51 21.463)
        (stroke (width 0.1524) (type default) (color 0 0 0 0))
        (fill (type none))
      )
      (rectangle (start 17.78 24.257) (end 16.51 24.003)
        (stroke (width 0.1524) (type default) (color 0 0 0 0))
        (fill (type none))
      )
      (rectangle (start 17.78 26.797) (end 16.51 26.543)
        (stroke (width 0.1524) (type default) (color 0 0 0 0))
        (fill (type none))
      )
      (rectangle (start 17.78 31.877) (end 16.51 31.623)
        (stroke (width 0.1524) (type default) (color 0 0 0 0))
        (fill (type none))
      )
      (rectangle (start 17.78 34.417) (end 16.51 34.163)
        (stroke (width 0.1524) (type default) (color 0 0 0 0))
        (fill (type none))
      )
      (rectangle (start 17.78 36.957) (end 16.51 36.703)
        (stroke (width 0.1524) (type default) (color 0 0 0 0))
        (fill (type none))
      )
      (rectangle (start 17.78 39.497) (end 16.51 39.243)
        (stroke (width 0.1524) (type default) (color 0 0 0 0))
        (fill (type none))
      )
      (rectangle (start 17.78 42.037) (end 16.51 41.783)
        (stroke (width 0.1524) (type default) (color 0 0 0 0))
        (fill (type none))
      )
      (rectangle (start 17.78 44.577) (end 16.51 44.323)
        (stroke (width 0.1524) (type default) (color 0 0 0 0))
        (fill (type none))
      )
      (rectangle (start 17.78 47.117) (end 16.51 46.863)
        (stroke (width 0.1524) (type default) (color 0 0 0 0))
        (fill (type none))
      )
      (rectangle (start 17.78 49.657) (end 16.51 49.403)
        (stroke (width 0.1524) (type default) (color 0 0 0 0))
        (fill (type none))
      )
      (rectangle (start 17.78 52.197) (end 16.51 51.943)
        (stroke (width 0.1524) (type default) (color 0 0 0 0))
        (fill (type none))
      )
      (rectangle (start 17.78 54.737) (end 16.51 54.483)
        (stroke (width 0.1524) (type default) (color 0 0 0 0))
        (fill (type none))
      )
      (rectangle (start 17.78 57.277) (end 16.51 57.023)
        (stroke (width 0.1524) (type default) (color 0 0 0 0))
        (fill (type none))
      )
      (text "Card 2" (at 0 -7.62 0)
        (effects (font (size 2.0066 2.0066)))
      )
      (text "Card 3" (at 0 -17.78 0)
        (effects (font (size 2.0066 2.0066)))
      )
      (text "Card 4" (at 0 -27.94 0)
        (effects (font (size 2.0066 2.0066)))
      )
      (text "Card 5" (at 0 -38.1 0)
        (effects (font (size 2.0066 2.0066)))
      )
      (text "GECCO PCIe" (at 0 54.61 0)
        (effects (font (size 2.0066 2.0066)))
      )
      (pin passive line (at -22.86 57.15 0) (length 3.81)
        (name "HV" (effects (font (size 1.27 1.27))))
        (number "A1" (effects (font (size 1.27 1.27))))
      )
      (pin passive line (at -22.86 34.29 0) (length 3.81)
        (name "POW7" (effects (font (size 1.27 1.27))))
        (number "A10" (effects (font (size 1.27 1.27))))
      )
      (pin passive line (at -22.86 31.75 0) (length 3.81)
        (name "GND" (effects (font (size 1.27 1.27))))
        (number "A11" (effects (font (size 1.27 1.27))))
      )
      (pin passive line (at -22.86 26.67 0) (length 3.81)
        (name "C1_1" (effects (font (size 1.27 1.27))))
        (number "A12" (effects (font (size 1.27 1.27))))
      )
      (pin passive line (at -22.86 24.13 0) (length 3.81)
        (name "C1_2" (effects (font (size 1.27 1.27))))
        (number "A13" (effects (font (size 1.27 1.27))))
      )
      (pin passive line (at -22.86 21.59 0) (length 3.81)
        (name "C1_5" (effects (font (size 1.27 1.27))))
        (number "A14" (effects (font (size 1.27 1.27))))
      )
      (pin passive line (at -22.86 19.05 0) (length 3.81)
        (name "C1_6" (effects (font (size 1.27 1.27))))
        (number "A15" (effects (font (size 1.27 1.27))))
      )
      (pin passive line (at -22.86 16.51 0) (length 3.81)
        (name "FMC_LA23_P" (effects (font (size 1.27 1.27))))
        (number "A16" (effects (font (size 1.27 1.27))))
      )
      (pin passive line (at -22.86 13.97 0) (length 3.81)
        (name "FMC_LA23_N" (effects (font (size 1.27 1.27))))
        (number "A17" (effects (font (size 1.27 1.27))))
      )
      (pin passive line (at -22.86 11.43 0) (length 3.81)
        (name "FMC_LA21_P" (effects (font (size 1.27 1.27))))
        (number "A18" (effects (font (size 1.27 1.27))))
      )
      (pin passive line (at -22.86 8.89 0) (length 3.81)
        (name "FMC_LA21_N" (effects (font (size 1.27 1.27))))
        (number "A19" (effects (font (size 1.27 1.27))))
      )
      (pin passive line (at -22.86 6.35 0) (length 3.81)
        (name "FMC_LA19_P" (effects (font (size 1.27 1.27))))
        (number "A20" (effects (font (size 1.27 1.27))))
      )
      (pin passive line (at -22.86 3.81 0) (length 3.81)
        (name "FMC_LA19_N" (effects (font (size 1.27 1.27))))
        (number "A21" (effects (font (size 1.27 1.27))))
      )
      (pin passive line (at -22.86 1.27 0) (length 3.81)
        (name "FMC_LA17_CC_P" (effects (font (size 1.27 1.27))))
        (number "A22" (effects (font (size 1.27 1.27))))
      )
      (pin passive line (at -22.86 -1.27 0) (length 3.81)
        (name "FMC_LA17_CC_N" (effects (font (size 1.27 1.27))))
        (number "A23" (effects (font (size 1.27 1.27))))
      )
      (pin passive line (at -22.86 -3.81 0) (length 3.81)
        (name "C2_1" (effects (font (size 1.27 1.27))))
        (number "A24" (effects (font (size 1.27 1.27))))
      )
      (pin passive line (at -22.86 -6.35 0) (length 3.81)
        (name "C2_2" (effects (font (size 1.27 1.27))))
        (number "A25" (effects (font (size 1.27 1.27))))
      )
      (pin passive line (at -22.86 -8.89 0) (length 3.81)
        (name "C2_5" (effects (font (size 1.27 1.27))))
        (number "A26" (effects (font (size 1.27 1.27))))
      )
      (pin passive line (at -22.86 -11.43 0) (length 3.81)
        (name "C2_6" (effects (font (size 1.27 1.27))))
        (number "A27" (effects (font (size 1.27 1.27))))
      )
      (pin passive line (at -22.86 -13.97 0) (length 3.81)
        (name "C3_1" (effects (font (size 1.27 1.27))))
        (number "A28" (effects (font (size 1.27 1.27))))
      )
      (pin passive line (at -22.86 -16.51 0) (length 3.81)
        (name "C3_2" (effects (font (size 1.27 1.27))))
        (number "A29" (effects (font (size 1.27 1.27))))
      )
      (pin passive line (at -22.86 52.07 0) (length 3.81)
        (name "VDD33" (effects (font (size 1.27 1.27))))
        (number "A3" (effects (font (size 1.27 1.27))))
      )
      (pin passive line (at -22.86 -19.05 0) (length 3.81)
        (name "C3_5" (effects (font (size 1.27 1.27))))
        (number "A30" (effects (font (size 1.27 1.27))))
      )
      (pin passive line (at -22.86 -21.59 0) (length 3.81)
        (name "C3_6" (effects (font (size 1.27 1.27))))
        (number "A31" (effects (font (size 1.27 1.27))))
      )
      (pin passive line (at -22.86 -24.13 0) (length 3.81)
        (name "C4_1" (effects (font (size 1.27 1.27))))
        (number "A32" (effects (font (size 1.27 1.27))))
      )
      (pin passive line (at -22.86 -26.67 0) (length 3.81)
        (name "C4_2" (effects (font (size 1.27 1.27))))
        (number "A33" (effects (font (size 1.27 1.27))))
      )
      (pin passive line (at -22.86 -29.21 0) (length 3.81)
        (name "C4_5" (effects (font (size 1.27 1.27))))
        (number "A34" (effects (font (size 1.27 1.27))))
      )
      (pin passive line (at -22.86 -31.75 0) (length 3.81)
        (name "C4_6" (effects (font (size 1.27 1.27))))
        (number "A35" (effects (font (size 1.27 1.27))))
      )
      (pin passive line (at -22.86 -34.29 0) (length 3.81)
        (name "C5_1" (effects (font (size 1.27 1.27))))
        (number "A36" (effects (font (size 1.27 1.27))))
      )
      (pin passive line (at -22.86 -36.83 0) (length 3.81)
        (name "C5_2" (effects (font (size 1.27 1.27))))
        (number "A37" (effects (font (size 1.27 1.27))))
      )
      (pin passive line (at -22.86 -39.37 0) (length 3.81)
        (name "C5_5" (effects (font (size 1.27 1.27))))
        (number "A38" (effects (font (size 1.27 1.27))))
      )
      (pin passive line (at -22.86 -41.91 0) (length 3.81)
        (name "C5_6" (effects (font (size 1.27 1.27))))
        (number "A39" (effects (font (size 1.27 1.27))))
      )
      (pin passive line (at -22.86 49.53 0) (length 3.81)
        (name "VDD33" (effects (font (size 1.27 1.27))))
        (number "A4" (effects (font (size 1.27 1.27))))
      )
      (pin passive line (at -22.86 -44.45 0) (length 3.81)
        (name "FMC_LA15_P" (effects (font (size 1.27 1.27))))
        (number "A40" (effects (font (size 1.27 1.27))))
      )
      (pin passive line (at -22.86 -46.99 0) (length 3.81)
        (name "FMC_LA15_N" (effects (font (size 1.27 1.27))))
        (number "A41" (effects (font (size 1.27 1.27))))
      )
      (pin passive line (at -22.86 -49.53 0) (length 3.81)
        (name "FMC_LA13_P" (effects (font (size 1.27 1.27))))
        (number "A42" (effects (font (size 1.27 1.27))))
      )
      (pin passive line (at -22.86 -52.07 0) (length 3.81)
        (name "FMC_LA13_N" (effects (font (size 1.27 1.27))))
        (number "A43" (effects (font (size 1.27 1.27))))
      )
      (pin passive line (at -22.86 -54.61 0) (length 3.81)
        (name "FMC_LA11_P" (effects (font (size 1.27 1.27))))
        (number "A44" (effects (font (size 1.27 1.27))))
      )
      (pin passive line (at -22.86 -57.15 0) (length 3.81)
        (name "FMC_LA11_N" (effects (font (size 1.27 1.27))))
        (number "A45" (effects (font (size 1.27 1.27))))
      )
      (pin passive line (at -22.86 -59.69 0) (length 3.81)
        (name "FMC_LA09_P" (effects (font (size 1.27 1.27))))
        (number "A46" (effects (font (size 1.27 1.27))))
      )
      (pin passive line (at -22.86 -62.23 0) (length 3.81)
        (name "FMC_LA09_N" (effects (font (size 1.27 1.27))))
        (number "A47" (effects (font (size 1.27 1.27))))
      )
      (pin passive line (at -22.86 -64.77 0) (length 3.81)
        (name "FMC_LA07_P" (effects (font (size 1.27 1.27))))
        (number "A48" (effects (font (size 1.27 1.27))))
      )
      (pin passive line (at -22.86 -67.31 0) (length 3.81)
        (name "FMC_LA07_N" (effects (font (size 1.27 1.27))))
        (number "A49" (effects (font (size 1.27 1.27))))
      )
      (pin passive line (at -22.86 46.99 0) (length 3.81)
        (name "VSSA" (effects (font (size 1.27 1.27))))
        (number "A5" (effects (font (size 1.27 1.27))))
      )
      (pin passive line (at -22.86 44.45 0) (length 3.81)
        (name "VSSA" (effects (font (size 1.27 1.27))))
        (number "A6" (effects (font (size 1.27 1.27))))
      )
      (pin passive line (at -22.86 41.91 0) (length 3.81)
        (name "POW5" (effects (font (size 1.27 1.27))))
        (number "A7" (effects (font (size 1.27 1.27))))
      )
      (pin passive line (at -22.86 39.37 0) (length 3.81)
        (name "POW5" (effects (font (size 1.27 1.27))))
        (number "A8" (effects (font (size 1.27 1.27))))
      )
      (pin passive line (at -22.86 36.83 0) (length 3.81)
        (name "POW7" (effects (font (size 1.27 1.27))))
        (number "A9" (effects (font (size 1.27 1.27))))
      )
      (pin passive line (at 21.59 57.15 180) (length 3.81)
        (name "HV" (effects (font (size 1.27 1.27))))
        (number "B1" (effects (font (size 1.27 1.27))))
      )
      (pin passive line (at 21.59 34.29 180) (length 3.81)
        (name "POW8" (effects (font (size 1.27 1.27))))
        (number "B10" (effects (font (size 1.27 1.27))))
      )
      (pin passive line (at 21.59 31.75 180) (length 3.81)
        (name "GND" (effects (font (size 1.27 1.27))))
        (number "B11" (effects (font (size 1.27 1.27))))
      )
      (pin passive line (at 21.59 26.67 180) (length 3.81)
        (name "C1_4" (effects (font (size 1.27 1.27))))
        (number "B12" (effects (font (size 1.27 1.27))))
      )
      (pin passive line (at 21.59 24.13 180) (length 3.81)
        (name "C1_3" (effects (font (size 1.27 1.27))))
        (number "B13" (effects (font (size 1.27 1.27))))
      )
      (pin passive line (at 21.59 21.59 180) (length 3.81)
        (name "C1_8" (effects (font (size 1.27 1.27))))
        (number "B14" (effects (font (size 1.27 1.27))))
      )
      (pin passive line (at 21.59 19.05 180) (length 3.81)
        (name "C1_7" (effects (font (size 1.27 1.27))))
        (number "B15" (effects (font (size 1.27 1.27))))
      )
      (pin passive line (at 21.59 16.51 180) (length 3.81)
        (name "FMC_LA24_P" (effects (font (size 1.27 1.27))))
        (number "B16" (effects (font (size 1.27 1.27))))
      )
      (pin passive line (at 21.59 13.97 180) (length 3.81)
        (name "FMC_LA24_N" (effects (font (size 1.27 1.27))))
        (number "B17" (effects (font (size 1.27 1.27))))
      )
      (pin passive line (at 21.59 11.43 180) (length 3.81)
        (name "FMC_LA22_P" (effects (font (size 1.27 1.27))))
        (number "B18" (effects (font (size 1.27 1.27))))
      )
      (pin passive line (at 21.59 8.89 180) (length 3.81)
        (name "FMC_LA22_N" (effects (font (size 1.27 1.27))))
        (number "B19" (effects (font (size 1.27 1.27))))
      )
      (pin passive line (at 21.59 6.35 180) (length 3.81)
        (name "FMC_LA20_P" (effects (font (size 1.27 1.27))))
        (number "B20" (effects (font (size 1.27 1.27))))
      )
      (pin passive line (at 21.59 3.81 180) (length 3.81)
        (name "FMC_LA20_N" (effects (font (size 1.27 1.27))))
        (number "B21" (effects (font (size 1.27 1.27))))
      )
      (pin passive line (at 21.59 1.27 180) (length 3.81)
        (name "FMC_LA18_CC_P" (effects (font (size 1.27 1.27))))
        (number "B22" (effects (font (size 1.27 1.27))))
      )
      (pin passive line (at 21.59 -1.27 180) (length 3.81)
        (name "FMC_LA18_CC_N" (effects (font (size 1.27 1.27))))
        (number "B23" (effects (font (size 1.27 1.27))))
      )
      (pin passive line (at 21.59 -3.81 180) (length 3.81)
        (name "C2_4" (effects (font (size 1.27 1.27))))
        (number "B24" (effects (font (size 1.27 1.27))))
      )
      (pin passive line (at 21.59 -6.35 180) (length 3.81)
        (name "C2_3" (effects (font (size 1.27 1.27))))
        (number "B25" (effects (font (size 1.27 1.27))))
      )
      (pin passive line (at 21.59 -8.89 180) (length 3.81)
        (name "C2_8" (effects (font (size 1.27 1.27))))
        (number "B26" (effects (font (size 1.27 1.27))))
      )
      (pin passive line (at 21.59 -11.43 180) (length 3.81)
        (name "C2_7" (effects (font (size 1.27 1.27))))
        (number "B27" (effects (font (size 1.27 1.27))))
      )
      (pin passive line (at 21.59 -13.97 180) (length 3.81)
        (name "C3_4" (effects (font (size 1.27 1.27))))
        (number "B28" (effects (font (size 1.27 1.27))))
      )
      (pin passive line (at 21.59 -16.51 180) (length 3.81)
        (name "C3_3" (effects (font (size 1.27 1.27))))
        (number "B29" (effects (font (size 1.27 1.27))))
      )
      (pin passive line (at 21.59 52.07 180) (length 3.81)
        (name "VDD18" (effects (font (size 1.27 1.27))))
        (number "B3" (effects (font (size 1.27 1.27))))
      )
      (pin passive line (at 21.59 -19.05 180) (length 3.81)
        (name "C3_8" (effects (font (size 1.27 1.27))))
        (number "B30" (effects (font (size 1.27 1.27))))
      )
      (pin passive line (at 21.59 -21.59 180) (length 3.81)
        (name "C3_7" (effects (font (size 1.27 1.27))))
        (number "B31" (effects (font (size 1.27 1.27))))
      )
      (pin passive line (at 21.59 -24.13 180) (length 3.81)
        (name "C4_4" (effects (font (size 1.27 1.27))))
        (number "B32" (effects (font (size 1.27 1.27))))
      )
      (pin passive line (at 21.59 -26.67 180) (length 3.81)
        (name "C4_3" (effects (font (size 1.27 1.27))))
        (number "B33" (effects (font (size 1.27 1.27))))
      )
      (pin passive line (at 21.59 -29.21 180) (length 3.81)
        (name "C4_8" (effects (font (size 1.27 1.27))))
        (number "B34" (effects (font (size 1.27 1.27))))
      )
      (pin passive line (at 21.59 -31.75 180) (length 3.81)
        (name "C4_7" (effects (font (size 1.27 1.27))))
        (number "B35" (effects (font (size 1.27 1.27))))
      )
      (pin passive line (at 21.59 -34.29 180) (length 3.81)
        (name "C5_4" (effects (font (size 1.27 1.27))))
        (number "B36" (effects (font (size 1.27 1.27))))
      )
      (pin passive line (at 21.59 -36.83 180) (length 3.81)
        (name "C5_3" (effects (font (size 1.27 1.27))))
        (number "B37" (effects (font (size 1.27 1.27))))
      )
      (pin passive line (at 21.59 -39.37 180) (length 3.81)
        (name "C5_8" (effects (font (size 1.27 1.27))))
        (number "B38" (effects (font (size 1.27 1.27))))
      )
      (pin passive line (at 21.59 -41.91 180) (length 3.81)
        (name "C5_7" (effects (font (size 1.27 1.27))))
        (number "B39" (effects (font (size 1.27 1.27))))
      )
      (pin passive line (at 21.59 49.53 180) (length 3.81)
        (name "VDD18" (effects (font (size 1.27 1.27))))
        (number "B4" (effects (font (size 1.27 1.27))))
      )
      (pin passive line (at 21.59 -44.45 180) (length 3.81)
        (name "FMC_LA16_P" (effects (font (size 1.27 1.27))))
        (number "B40" (effects (font (size 1.27 1.27))))
      )
      (pin passive line (at 21.59 -46.99 180) (length 3.81)
        (name "FMC_LA16_N" (effects (font (size 1.27 1.27))))
        (number "B41" (effects (font (size 1.27 1.27))))
      )
      (pin passive line (at 21.59 -49.53 180) (length 3.81)
        (name "FMC_LA14_P" (effects (font (size 1.27 1.27))))
        (number "B42" (effects (font (size 1.27 1.27))))
      )
      (pin passive line (at 21.59 -52.07 180) (length 3.81)
        (name "FMC_LA14_N" (effects (font (size 1.27 1.27))))
        (number "B43" (effects (font (size 1.27 1.27))))
      )
      (pin passive line (at 21.59 -54.61 180) (length 3.81)
        (name "FMC_LA12_P" (effects (font (size 1.27 1.27))))
        (number "B44" (effects (font (size 1.27 1.27))))
      )
      (pin passive line (at 21.59 -57.15 180) (length 3.81)
        (name "FMC_LA12_N" (effects (font (size 1.27 1.27))))
        (number "B45" (effects (font (size 1.27 1.27))))
      )
      (pin passive line (at 21.59 -59.69 180) (length 3.81)
        (name "FMC_LA10_P" (effects (font (size 1.27 1.27))))
        (number "B46" (effects (font (size 1.27 1.27))))
      )
      (pin passive line (at 21.59 -62.23 180) (length 3.81)
        (name "FMC_LA10_N" (effects (font (size 1.27 1.27))))
        (number "B47" (effects (font (size 1.27 1.27))))
      )
      (pin passive line (at 21.59 -64.77 180) (length 3.81)
        (name "FMC_LA08_P" (effects (font (size 1.27 1.27))))
        (number "B48" (effects (font (size 1.27 1.27))))
      )
      (pin passive line (at 21.59 -67.31 180) (length 3.81)
        (name "FMC_LA08_N" (effects (font (size 1.27 1.27))))
        (number "B49" (effects (font (size 1.27 1.27))))
      )
      (pin passive line (at 21.59 46.99 180) (length 3.81)
        (name "POW4" (effects (font (size 1.27 1.27))))
        (number "B5" (effects (font (size 1.27 1.27))))
      )
      (pin passive line (at 21.59 44.45 180) (length 3.81)
        (name "POW4" (effects (font (size 1.27 1.27))))
        (number "B6" (effects (font (size 1.27 1.27))))
      )
      (pin passive line (at 21.59 41.91 180) (length 3.81)
        (name "POW6" (effects (font (size 1.27 1.27))))
        (number "B7" (effects (font (size 1.27 1.27))))
      )
      (pin passive line (at 21.59 39.37 180) (length 3.81)
        (name "POW6" (effects (font (size 1.27 1.27))))
        (number "B8" (effects (font (size 1.27 1.27))))
      )
      (pin passive line (at 21.59 36.83 180) (length 3.81)
        (name "POW8" (effects (font (size 1.27 1.27))))
        (number "B9" (effects (font (size 1.27 1.27))))
      )
    )
  )
  (symbol "suba" (power) (pin_names (offset 0)) (in_bom yes) (on_board yes)
    (property "Reference" "#PWR" (id 0) (at -1.27 -5.08 0)
      (effects (font (size 1.27 1.27)) hide)
    )
    (property "Value" "suba" (id 1) (at 0 -3.81 0)
      (effects (font (size 1.27 1.27)))
    )
    (property "Footprint" "" (id 2) (at 0 0 0)
      (effects (font (size 1.27 1.27)) hide)
    )
    (property "Datasheet" "" (id 3) (at 0 0 0)
      (effects (font (size 1.27 1.27)) hide)
    )
    (property "ki_keywords" "power-flag" (id 4) (at 0 0 0)
      (effects (font (size 1.27 1.27)) hide)
    )
    (symbol "suba_0_0"
      (pin power_in line (at 0 0 270) (length 0) hide
        (name "suba" (effects (font (size 1.27 1.27))))
        (number "1" (effects (font (size 1.27 1.27))))
      )
    )
    (symbol "suba_0_1"
      (polyline
        (pts
          (xy 0 -2.54)
          (xy 0 0)
        )
        (stroke (width 0) (type default) (color 0 0 0 0))
        (fill (type none))
      )
      (polyline
        (pts
          (xy -1.27 -1.27)
          (xy 0 -2.54)
          (xy 1.27 -1.27)
        )
        (stroke (width 0) (type default) (color 0 0 0 0))
        (fill (type none))
      )
    )
  )
  (symbol "subd" (power) (pin_names (offset 0)) (in_bom yes) (on_board yes)
    (property "Reference" "#PWR" (id 0) (at -1.27 -5.08 0)
      (effects (font (size 1.27 1.27)) hide)
    )
    (property "Value" "subd" (id 1) (at 0 -3.81 0)
      (effects (font (size 1.27 1.27)))
    )
    (property "Footprint" "" (id 2) (at 0 0 0)
      (effects (font (size 1.27 1.27)) hide)
    )
    (property "Datasheet" "" (id 3) (at 0 0 0)
      (effects (font (size 1.27 1.27)) hide)
    )
    (property "ki_keywords" "power-flag" (id 4) (at 0 0 0)
      (effects (font (size 1.27 1.27)) hide)
    )
    (symbol "subd_0_0"
      (pin power_in line (at 0 0 270) (length 0) hide
        (name "subd" (effects (font (size 1.27 1.27))))
        (number "1" (effects (font (size 1.27 1.27))))
      )
    )
    (symbol "subd_0_1"
      (polyline
        (pts
          (xy 0 -2.54)
          (xy 0 0)
        )
        (stroke (width 0) (type default) (color 0 0 0 0))
        (fill (type none))
      )
      (polyline
        (pts
          (xy -1.27 -1.27)
          (xy 0 -2.54)
          (xy 1.27 -1.27)
        )
        (stroke (width 0) (type default) (color 0 0 0 0))
        (fill (type none))
      )
    )
  )
)
