(kicad_sch (version 20211123) (generator eeschema)

  (uuid 3373569b-aeff-4484-b97d-fec39e7c7549)

  (paper "A4")

  (lib_symbols
    (symbol "Device:R" (pin_numbers hide) (pin_names (offset 0)) (in_bom yes) (on_board yes)
      (property "Reference" "R" (id 0) (at 2.032 0 90)
        (effects (font (size 1.27 1.27)))
      )
      (property "Value" "R" (id 1) (at 0 0 90)
        (effects (font (size 1.27 1.27)))
      )
      (property "Footprint" "" (id 2) (at -1.778 0 90)
        (effects (font (size 1.27 1.27)) hide)
      )
      (property "Datasheet" "~" (id 3) (at 0 0 0)
        (effects (font (size 1.27 1.27)) hide)
      )
      (property "ki_keywords" "R res resistor" (id 4) (at 0 0 0)
        (effects (font (size 1.27 1.27)) hide)
      )
      (property "ki_description" "Resistor" (id 5) (at 0 0 0)
        (effects (font (size 1.27 1.27)) hide)
      )
      (property "ki_fp_filters" "R_*" (id 6) (at 0 0 0)
        (effects (font (size 1.27 1.27)) hide)
      )
      (symbol "R_0_1"
        (rectangle (start -1.016 -2.54) (end 1.016 2.54)
          (stroke (width 0.254) (type default) (color 0 0 0 0))
          (fill (type none))
        )
      )
      (symbol "R_1_1"
        (pin passive line (at 0 3.81 270) (length 1.27)
          (name "~" (effects (font (size 1.27 1.27))))
          (number "1" (effects (font (size 1.27 1.27))))
        )
        (pin passive line (at 0 -3.81 90) (length 1.27)
          (name "~" (effects (font (size 1.27 1.27))))
          (number "2" (effects (font (size 1.27 1.27))))
        )
      )
    )
    (symbol "Transistor_BJT:BC847BS" (pin_names (offset 0) hide) (in_bom yes) (on_board yes)
      (property "Reference" "Q" (id 0) (at 5.08 1.27 0)
        (effects (font (size 1.27 1.27)) (justify left))
      )
      (property "Value" "BC847BS" (id 1) (at 5.08 -1.27 0)
        (effects (font (size 1.27 1.27)) (justify left))
      )
      (property "Footprint" "Package_TO_SOT_SMD:SOT-363_SC-70-6" (id 2) (at 5.08 2.54 0)
        (effects (font (size 1.27 1.27)) hide)
      )
      (property "Datasheet" "https://assets.nexperia.com/documents/data-sheet/BC847BS.pdf" (id 3) (at 0 0 0)
        (effects (font (size 1.27 1.27)) hide)
      )
      (property "ki_locked" "" (id 4) (at 0 0 0)
        (effects (font (size 1.27 1.27)))
      )
      (property "ki_keywords" "NPN/NPN Transistor" (id 5) (at 0 0 0)
        (effects (font (size 1.27 1.27)) hide)
      )
      (property "ki_description" "100mA IC, 45V Vce, Dual NPN/NPN Transistors, SOT-363" (id 6) (at 0 0 0)
        (effects (font (size 1.27 1.27)) hide)
      )
      (property "ki_fp_filters" "SOT?363*" (id 7) (at 0 0 0)
        (effects (font (size 1.27 1.27)) hide)
      )
      (symbol "BC847BS_0_1"
        (polyline
          (pts
            (xy 0.635 0)
            (xy -2.54 0)
          )
          (stroke (width 0) (type default) (color 0 0 0 0))
          (fill (type none))
        )
        (polyline
          (pts
            (xy 0.635 0.635)
            (xy 2.54 2.54)
          )
          (stroke (width 0) (type default) (color 0 0 0 0))
          (fill (type none))
        )
        (polyline
          (pts
            (xy 0.635 -0.635)
            (xy 2.54 -2.54)
            (xy 2.54 -2.54)
          )
          (stroke (width 0) (type default) (color 0 0 0 0))
          (fill (type none))
        )
        (polyline
          (pts
            (xy 0.635 1.905)
            (xy 0.635 -1.905)
            (xy 0.635 -1.905)
          )
          (stroke (width 0.508) (type default) (color 0 0 0 0))
          (fill (type none))
        )
        (polyline
          (pts
            (xy 1.27 -1.778)
            (xy 1.778 -1.27)
            (xy 2.286 -2.286)
            (xy 1.27 -1.778)
            (xy 1.27 -1.778)
          )
          (stroke (width 0) (type default) (color 0 0 0 0))
          (fill (type outline))
        )
        (circle (center 1.27 0) (radius 2.8194)
          (stroke (width 0.254) (type default) (color 0 0 0 0))
          (fill (type none))
        )
      )
      (symbol "BC847BS_1_1"
        (pin passive line (at 2.54 -5.08 90) (length 2.54)
          (name "E1" (effects (font (size 1.27 1.27))))
          (number "1" (effects (font (size 1.27 1.27))))
        )
        (pin input line (at -5.08 0 0) (length 2.54)
          (name "B1" (effects (font (size 1.27 1.27))))
          (number "2" (effects (font (size 1.27 1.27))))
        )
        (pin passive line (at 2.54 5.08 270) (length 2.54)
          (name "C1" (effects (font (size 1.27 1.27))))
          (number "6" (effects (font (size 1.27 1.27))))
        )
      )
      (symbol "BC847BS_2_1"
        (pin passive line (at 2.54 5.08 270) (length 2.54)
          (name "C2" (effects (font (size 1.27 1.27))))
          (number "3" (effects (font (size 1.27 1.27))))
        )
        (pin passive line (at 2.54 -5.08 90) (length 2.54)
          (name "E2" (effects (font (size 1.27 1.27))))
          (number "4" (effects (font (size 1.27 1.27))))
        )
        (pin input line (at -5.08 0 0) (length 2.54)
          (name "B2" (effects (font (size 1.27 1.27))))
          (number "5" (effects (font (size 1.27 1.27))))
        )
      )
    )
    (symbol "power:GND" (power) (pin_names (offset 0)) (in_bom yes) (on_board yes)
      (property "Reference" "#PWR" (id 0) (at 0 -6.35 0)
        (effects (font (size 1.27 1.27)) hide)
      )
      (property "Value" "GND" (id 1) (at 0 -3.81 0)
        (effects (font (size 1.27 1.27)))
      )
      (property "Footprint" "" (id 2) (at 0 0 0)
        (effects (font (size 1.27 1.27)) hide)
      )
      (property "Datasheet" "" (id 3) (at 0 0 0)
        (effects (font (size 1.27 1.27)) hide)
      )
      (property "ki_keywords" "power-flag" (id 4) (at 0 0 0)
        (effects (font (size 1.27 1.27)) hide)
      )
      (property "ki_description" "Power symbol creates a global label with name \"GND\" , ground" (id 5) (at 0 0 0)
        (effects (font (size 1.27 1.27)) hide)
      )
      (symbol "GND_0_1"
        (polyline
          (pts
            (xy 0 0)
            (xy 0 -1.27)
            (xy 1.27 -1.27)
            (xy 0 -2.54)
            (xy -1.27 -1.27)
            (xy 0 -1.27)
          )
          (stroke (width 0) (type default) (color 0 0 0 0))
          (fill (type none))
        )
      )
      (symbol "GND_1_1"
        (pin power_in line (at 0 0 270) (length 0) hide
          (name "GND" (effects (font (size 1.27 1.27))))
          (number "1" (effects (font (size 1.27 1.27))))
        )
      )
    )
  )

  (junction (at 92.71 81.28) (diameter 0) (color 0 0 0 0)
    (uuid 6bd87d2a-be96-461e-b342-6ac4fc16b6f0)
  )
  (junction (at 95.25 55.88) (diameter 0) (color 0 0 0 0)
    (uuid ba589c6a-6486-45c7-b0ef-666d156a857c)
  )

  (wire (pts (xy 102.87 55.88) (xy 109.22 55.88))
    (stroke (width 0) (type default) (color 0 0 0 0))
    (uuid 22174cf7-ad9e-43d1-9018-fc2646a4fcca)
  )
  (wire (pts (xy 95.25 54.61) (xy 95.25 55.88))
    (stroke (width 0) (type default) (color 0 0 0 0))
    (uuid 823e1d26-bb96-491a-b757-c027545e7742)
  )
  (wire (pts (xy 95.25 55.88) (xy 95.25 58.42))
    (stroke (width 0) (type default) (color 0 0 0 0))
    (uuid a160be55-2e33-4eda-bfed-78c03d91e38e)
  )
  (wire (pts (xy 92.71 81.28) (xy 92.71 86.36))
    (stroke (width 0) (type default) (color 0 0 0 0))
    (uuid a60ce1d5-e311-49c7-aaad-23520b990101)
  )
  (wire (pts (xy 92.71 81.28) (xy 92.71 80.01))
    (stroke (width 0) (type default) (color 0 0 0 0))
    (uuid d2b619c9-ffcd-4d92-bac2-9104d821b769)
  )
  (wire (pts (xy 100.33 81.28) (xy 106.68 81.28))
    (stroke (width 0) (type default) (color 0 0 0 0))
    (uuid f1bb6f27-1a20-4cae-a68b-548e288874b3)
  )

  (hierarchical_label "In2" (shape input) (at 92.71 69.85 90)
    (effects (font (size 1.27 1.27)) (justify left))
    (uuid 3ccaa122-d78e-46a8-849b-58bd353d3131)
  )
  (hierarchical_label "switch2" (shape input) (at 85.09 74.93 180)
    (effects (font (size 1.27 1.27)) (justify right))
    (uuid 8b21207f-f55f-4339-8bed-f3cc733e2bc2)
  )
  (hierarchical_label "Out2" (shape input) (at 92.71 86.36 270)
    (effects (font (size 1.27 1.27)) (justify right))
    (uuid bd7297a2-f850-4b72-ac09-d7ae07cbd6db)
  )
  (hierarchical_label "switch1" (shape input) (at 87.63 49.53 180)
    (effects (font (size 1.27 1.27)) (justify right))
    (uuid c0bf1fa3-f018-42bc-8edd-a1a7dae75c6b)
  )
  (hierarchical_label "In1" (shape input) (at 95.25 44.45 90)
    (effects (font (size 1.27 1.27)) (justify left))
    (uuid e017fb05-455f-4119-80bc-5e7cce1e95a8)
  )
  (hierarchical_label "Out1" (shape input) (at 95.25 58.42 270)
    (effects (font (size 1.27 1.27)) (justify right))
    (uuid e31af256-1d3e-4c96-b492-c1a88c1acb7f)
  )

  (symbol (lib_id "Device:R") (at 96.52 81.28 90) (unit 1)
    (in_bom yes) (on_board yes)
    (uuid 4d8fa472-7888-4ab8-8c52-e88365235bca)
    (property "Reference" "R20" (id 0) (at 96.52 83.82 90))
    (property "Value" "R Unplaced" (id 1) (at 101.6 78.74 90))
    (property "Footprint" "Resistor_SMD:R_0603_1608Metric_Pad0.98x0.95mm_HandSolder" (id 2) (at 96.52 83.058 90)
      (effects (font (size 1.27 1.27)) hide)
    )
    (property "Datasheet" "~" (id 3) (at 96.52 81.28 0)
      (effects (font (size 1.27 1.27)) hide)
    )
    (pin "1" (uuid 5ce9349d-e038-46b0-a15a-b5a0af25521c))
    (pin "2" (uuid fc250d0b-73df-4b27-ad54-6c2c672402b6))
  )

  (symbol (lib_id "power:GND") (at 106.68 81.28 0) (unit 1)
    (in_bom yes) (on_board yes)
    (uuid 4ee8f060-564b-46df-a9b0-436aa90ac4f5)
    (property "Reference" "#PWR037" (id 0) (at 106.68 87.63 0)
      (effects (font (size 1.27 1.27)) hide)
    )
    (property "Value" "GND" (id 1) (at 106.68 85.09 0))
    (property "Footprint" "" (id 2) (at 106.68 81.28 0)
      (effects (font (size 1.27 1.27)) hide)
    )
    (property "Datasheet" "" (id 3) (at 106.68 81.28 0)
      (effects (font (size 1.27 1.27)) hide)
    )
    (pin "1" (uuid 85d4305d-b4c9-46db-aeb2-2a47081af16e))
  )

  (symbol (lib_id "Device:R") (at 99.06 55.88 90) (unit 1)
    (in_bom yes) (on_board yes)
    (uuid 64dae1f0-fb0e-4215-8e61-2f04c8f9cba4)
    (property "Reference" "R21" (id 0) (at 99.06 58.42 90))
    (property "Value" "R Unplaced" (id 1) (at 102.87 53.34 90))
    (property "Footprint" "Resistor_SMD:R_0603_1608Metric_Pad0.98x0.95mm_HandSolder" (id 2) (at 99.06 57.658 90)
      (effects (font (size 1.27 1.27)) hide)
    )
    (property "Datasheet" "~" (id 3) (at 99.06 55.88 0)
      (effects (font (size 1.27 1.27)) hide)
    )
    (pin "1" (uuid 7091f08b-4cbe-4ee4-9342-8ff1c006e4e7))
    (pin "2" (uuid e8dba1ad-20ba-428b-9b6d-d54656f9f3e0))
  )

  (symbol (lib_id "Transistor_BJT:BC847BS") (at 92.71 49.53 0) (unit 1)
    (in_bom yes) (on_board yes)
    (uuid b122cc68-db9f-44c4-bb10-b3a7a1f95eb0)
    (property "Reference" "Q2" (id 0) (at 97.79 46.99 0)
      (effects (font (size 1.27 1.27)) (justify left))
    )
    (property "Value" "BC807" (id 1) (at 97.79 49.53 0)
      (effects (font (size 1.27 1.27)) (justify left))
    )
    (property "Footprint" "Package_SO:SC-74-6_1.5x2.9mm_P0.95mm" (id 2) (at 97.79 46.99 0)
      (effects (font (size 1.27 1.27)) hide)
    )
    (property "Datasheet" "https://assets.nexperia.com/documents/data-sheet/BC847BS.pdf" (id 3) (at 92.71 49.53 0)
      (effects (font (size 1.27 1.27)) hide)
    )
    (pin "1" (uuid e6d4c556-116f-4ced-9b73-274609df2345))
    (pin "2" (uuid 66c2306b-f5a2-4b6f-95b8-f3b68d402110))
    (pin "6" (uuid 81bb1c20-cbb7-4843-9e1a-0559f28e19aa))
    (pin "3" (uuid ef4013a1-933b-409d-9814-0f766c0b73ea))
    (pin "4" (uuid 97e88c28-065e-4f8c-9e5f-5bf180b3a8a5))
    (pin "5" (uuid b2bb99a1-f974-4484-9287-e92852960b26))
  )

  (symbol (lib_id "Transistor_BJT:BC847BS") (at 90.17 74.93 0) (unit 2)
    (in_bom yes) (on_board yes)
    (uuid c7594167-8fdb-4ac4-8987-dbd37068bc84)
    (property "Reference" "Q2" (id 0) (at 95.25 72.39 0)
      (effects (font (size 1.27 1.27)) (justify left))
    )
    (property "Value" "BC807" (id 1) (at 95.25 74.93 0)
      (effects (font (size 1.27 1.27)) (justify left))
    )
    (property "Footprint" "Package_SO:SC-74-6_1.5x2.9mm_P0.95mm" (id 2) (at 95.25 72.39 0)
      (effects (font (size 1.27 1.27)) hide)
    )
    (property "Datasheet" "https://assets.nexperia.com/documents/data-sheet/BC847BS.pdf" (id 3) (at 90.17 74.93 0)
      (effects (font (size 1.27 1.27)) hide)
    )
    (pin "1" (uuid dd7ab86a-86d1-4dd1-84ec-52dd41e5d95f))
    (pin "2" (uuid 25ca2a0d-9d7a-4fe2-ba3e-4663d33004ac))
    (pin "6" (uuid c0fff60f-2530-4cd6-8487-6278efeebc80))
    (pin "3" (uuid 7f78cc66-3800-4267-a8e9-cb97d67200ff))
    (pin "4" (uuid 47d9f600-0d8e-402c-8398-f5c25ed0a349))
    (pin "5" (uuid 2efa0aa8-9c35-40cd-a4d8-7027696cf852))
  )

  (symbol (lib_id "power:GND") (at 109.22 55.88 0) (unit 1)
    (in_bom yes) (on_board yes)
    (uuid e099819b-fdc9-4a51-a15e-5e6b5342a994)
    (property "Reference" "#PWR038" (id 0) (at 109.22 62.23 0)
      (effects (font (size 1.27 1.27)) hide)
    )
    (property "Value" "GND" (id 1) (at 109.22 59.69 0))
    (property "Footprint" "" (id 2) (at 109.22 55.88 0)
      (effects (font (size 1.27 1.27)) hide)
    )
    (property "Datasheet" "" (id 3) (at 109.22 55.88 0)
      (effects (font (size 1.27 1.27)) hide)
    )
    (pin "1" (uuid 765e66c1-b474-4ee8-9c03-615c832e2bbb))
  )
)
