(kicad_symbol_lib (version 20211014) (generator kicad_symbol_editor)
  (symbol "BC817UPN" (in_bom yes) (on_board yes)
    (property "Reference" "U" (id 0) (at -1.27 0 0)
      (effects (font (size 1.27 1.27)))
    )
    (property "Value" "BC817UPN" (id 1) (at 1.27 -10.16 0)
      (effects (font (size 1.27 1.27)))
    )
    (property "Footprint" "" (id 2) (at 0 0 0)
      (effects (font (size 1.27 1.27)) hide)
    )
    (property "Datasheet" "" (id 3) (at 0 0 0)
      (effects (font (size 1.27 1.27)) hide)
    )
    (symbol "BC817UPN_0_1"
      (rectangle (start -2.54 -1.27) (end 10.16 -8.89)
        (stroke (width 0) (type default) (color 0 0 0 0))
        (fill (type none))
      )
    )
    (symbol "BC817UPN_1_1"
      (pin input line (at -5.08 -2.54 0) (length 2.54)
        (name "E1" (effects (font (size 1.27 1.27))))
        (number "1" (effects (font (size 1.27 1.27))))
      )
      (pin input line (at -5.08 -5.08 0) (length 2.54)
        (name "Gate1" (effects (font (size 1.27 1.27))))
        (number "2" (effects (font (size 1.27 1.27))))
      )
      (pin input line (at -5.08 -7.62 0) (length 2.54)
        (name "C2" (effects (font (size 1.27 1.27))))
        (number "3" (effects (font (size 1.27 1.27))))
      )
      (pin input line (at 12.7 -7.62 180) (length 2.54)
        (name "E2" (effects (font (size 1.27 1.27))))
        (number "4" (effects (font (size 1.27 1.27))))
      )
      (pin input line (at 12.7 -5.08 180) (length 2.54)
        (name "Gate2" (effects (font (size 1.27 1.27))))
        (number "5" (effects (font (size 1.27 1.27))))
      )
      (pin input line (at 12.7 -2.54 180) (length 2.54)
        (name "C1" (effects (font (size 1.27 1.27))))
        (number "6" (effects (font (size 1.27 1.27))))
      )
    )
  )
  (symbol "MAX5825BAUPT" (pin_names (offset 1.016)) (in_bom yes) (on_board yes)
    (property "Reference" "U" (id 0) (at -12.7 26.3906 0)
      (effects (font (size 1.27 1.27)) (justify left bottom))
    )
    (property "Value" "MAX5825BAUPT" (id 1) (at -12.7 -29.3878 0)
      (effects (font (size 1.27 1.27)) (justify left bottom))
    )
    (property "Footprint" "SOP65P640X110-20N" (id 2) (at 0 0 0)
      (effects (font (size 1.27 1.27)) (justify left bottom) hide)
    )
    (property "Datasheet" "" (id 3) (at 0 0 0)
      (effects (font (size 1.27 1.27)) (justify left bottom) hide)
    )
    (property "ki_locked" "" (id 4) (at 0 0 0)
      (effects (font (size 1.27 1.27)))
    )
    (symbol "MAX5825BAUPT_0_0"
      (rectangle (start -12.7 -25.4) (end 12.7 25.4)
        (stroke (width 0.4064) (type default) (color 0 0 0 0))
        (fill (type background))
      )
      (pin input line (at -17.78 5.08 0) (length 5.08)
        (name "REF" (effects (font (size 1.016 1.016))))
        (number "1" (effects (font (size 1.016 1.016))))
      )
      (pin power_in line (at 17.78 22.86 180) (length 5.08)
        (name "VDD" (effects (font (size 1.016 1.016))))
        (number "10" (effects (font (size 1.016 1.016))))
      )
      (pin power_in line (at 17.78 20.32 180) (length 5.08)
        (name "VDDIO" (effects (font (size 1.016 1.016))))
        (number "11" (effects (font (size 1.016 1.016))))
      )
      (pin input line (at -17.78 7.62 0) (length 5.08)
        (name "ADDR1" (effects (font (size 1.016 1.016))))
        (number "12" (effects (font (size 1.016 1.016))))
      )
      (pin input line (at -17.78 10.16 0) (length 5.08)
        (name "ADDR0" (effects (font (size 1.016 1.016))))
        (number "13" (effects (font (size 1.016 1.016))))
      )
      (pin input line (at -17.78 2.54 0) (length 5.08)
        (name "SCL" (effects (font (size 1.016 1.016))))
        (number "14" (effects (font (size 1.016 1.016))))
      )
      (pin bidirectional line (at -17.78 -15.24 0) (length 5.08)
        (name "SDA" (effects (font (size 1.016 1.016))))
        (number "15" (effects (font (size 1.016 1.016))))
      )
      (pin output line (at 17.78 15.24 180) (length 5.08)
        (name "~{IRQ}" (effects (font (size 1.016 1.016))))
        (number "16" (effects (font (size 1.016 1.016))))
      )
      (pin input line (at -17.78 15.24 0) (length 5.08)
        (name "~{CLR}" (effects (font (size 1.016 1.016))))
        (number "17" (effects (font (size 1.016 1.016))))
      )
      (pin input line (at -17.78 12.7 0) (length 5.08)
        (name "~{LDAC}" (effects (font (size 1.016 1.016))))
        (number "18" (effects (font (size 1.016 1.016))))
      )
      (pin power_in line (at 17.78 -22.86 180) (length 5.08)
        (name "GND" (effects (font (size 1.016 1.016))))
        (number "19" (effects (font (size 1.016 1.016))))
      )
      (pin output line (at 17.78 12.7 180) (length 5.08)
        (name "OUT0" (effects (font (size 1.016 1.016))))
        (number "2" (effects (font (size 1.016 1.016))))
      )
      (pin bidirectional line (at -17.78 -10.16 0) (length 5.08)
        (name "M/*Z" (effects (font (size 1.016 1.016))))
        (number "20" (effects (font (size 1.016 1.016))))
      )
      (pin output line (at 17.78 10.16 180) (length 5.08)
        (name "OUT1" (effects (font (size 1.016 1.016))))
        (number "3" (effects (font (size 1.016 1.016))))
      )
      (pin output line (at 17.78 7.62 180) (length 5.08)
        (name "OUT2" (effects (font (size 1.016 1.016))))
        (number "4" (effects (font (size 1.016 1.016))))
      )
      (pin output line (at 17.78 5.08 180) (length 5.08)
        (name "OUT3" (effects (font (size 1.016 1.016))))
        (number "5" (effects (font (size 1.016 1.016))))
      )
      (pin output line (at 17.78 2.54 180) (length 5.08)
        (name "OUT4" (effects (font (size 1.016 1.016))))
        (number "6" (effects (font (size 1.016 1.016))))
      )
      (pin output line (at 17.78 0 180) (length 5.08)
        (name "OUT5" (effects (font (size 1.016 1.016))))
        (number "7" (effects (font (size 1.016 1.016))))
      )
      (pin output line (at 17.78 -2.54 180) (length 5.08)
        (name "OUT6" (effects (font (size 1.016 1.016))))
        (number "8" (effects (font (size 1.016 1.016))))
      )
      (pin output line (at 17.78 -5.08 180) (length 5.08)
        (name "OUT7" (effects (font (size 1.016 1.016))))
        (number "9" (effects (font (size 1.016 1.016))))
      )
    )
  )
)
