(footprint "MightyPix1_diffpairs2" (version 20211014) (generator pcbnew)
  (layer "F.Cu")
  (tedit 60E82327)
  (attr through_hole)
  (fp_text reference "REF**" (at -15.41 5.19) (layer "F.SilkS")
    (effects (font (size 1 1) (thickness 0.15)))
    (tstamp 3143759f-f452-402a-b18f-6432e141f228)
  )
  (fp_text value "MightyPix1" (at -12.01 11.64) (layer "F.Fab")
    (effects (font (size 1 1) (thickness 0.15)))
    (tstamp e335ecc2-e6ec-4d85-82b2-4f6401ba07fd)
  )
  (fp_rect (start -0.25 -0.25) (end 5.75 20.75) (layer "F.Mask") (width 0.1) (fill solid) (tstamp 988f47a8-b772-41d7-b1b5-18592afe5c60))
  (fp_poly (pts
      (xy 8.8 20.06)
      (xy 6.9 20.06)
      (xy 6.9 19.64)
      (xy 8.8 19.64)
    ) (layer "F.Mask") (width 0.1) (fill solid) (tstamp 4fdaae2a-6d5d-4d37-992e-107f51d849da))
  (fp_poly (pts
      (xy 5.65 24.1)
      (xy -0.17 24.1)
      (xy -0.17 23.3)
      (xy 5.65 23.3)
    ) (layer "F.Mask") (width 0.1) (fill solid) (tstamp 5e5950ea-882f-474f-ba19-7c66cd6a801c))
  (fp_poly (pts
      (xy 5.6 22.7)
      (xy -0.07 22.7)
      (xy -0.07 21.9)
      (xy 5.6 21.9)
    ) (layer "F.Mask") (width 0.1) (fill solid) (tstamp 619e2a8b-1692-4d1f-8a8e-06c0aa5d95a6))
  (fp_poly (pts
      (xy 6 25.5)
      (xy -0.27 25.5)
      (xy -0.27 24.7)
      (xy 6 24.7)
    ) (layer "F.Mask") (width 0.1) (fill solid) (tstamp 9f33f09f-eff7-4b1d-a002-545a04fa0d40))
  (fp_poly (pts
      (xy -1.4 20.06)
      (xy -3.3 20.06)
      (xy -3.3 19.64)
      (xy -1.4 19.64)
    ) (layer "F.Mask") (width 0.1) (fill solid) (tstamp da957780-7f46-4025-8a7b-c01cc2e53e64))
  (fp_poly (pts
      (xy 5.575 26.9)
      (xy -0.395 26.9)
      (xy -0.395 26.1)
      (xy 5.575 26.1)
    ) (layer "F.Mask") (width 0.1) (fill solid) (tstamp f787f4a7-4491-426d-911d-bb66b568c2c7))
  (fp_rect (start 0.25 0.25) (end 5.25 20.25) (layer "Dwgs.User") (width 0.05) (fill none) (tstamp 23c4dd39-0390-4c60-9366-9720ea3fafbf))
  (fp_line (start 1.3 20.18) (end 1.06 22.13) (layer "User.2") (width 0.05) (tstamp 0753fcae-f65b-49d9-b047-4df83088d803))
  (fp_line (start 3.99 20.19) (end 4.59 23.52) (layer "User.2") (width 0.05) (tstamp 078b3bcc-b1c6-450c-a652-20047e4190ee))
  (fp_line (start 1.7 20.18) (end 1.5 26.3) (layer "User.2") (width 0.05) (tstamp 0aad39a8-7f4e-42ac-8c06-6dd85bb2ec77))
  (fp_line (start 2.6 20.18) (end 2.8 24.93) (layer "User.2") (width 0.05) (tstamp 0b3f6921-1ef6-40e8-bf30-28bde911671f))
  (fp_line (start 2.1 20.18) (end 1.9 26.3) (layer "User.2") (width 0.05) (tstamp 0c2e3a3f-bf84-4225-82cd-379f80e109c0))
  (fp_line (start 4.79 20.19) (end 5.14 22.1) (layer "User.2") (width 0.05) (tstamp 10dd9320-a62c-4737-b0c9-32b2cdd60719))
  (fp_line (start 4.39 20.19) (end 5.24 24.9) (layer "User.2") (width 0.05) (tstamp 232ae87c-047c-4d25-8a8d-d329002a0a92))
  (fp_line (start 0.6 20.165) (end -0.105 24.91) (layer "User.2") (width 0.05) (tstamp 2cee8539-1efd-42e4-bff9-b64731cbb230))
  (fp_line (start 0.9 20.16) (end 0.4 23.52) (layer "User.2") (width 0.05) (tstamp 2f7263f3-b04d-43e8-8670-8d8be944fa3f))
  (fp_line (start 4.49 20.19) (end 4.84 22.1) (layer "User.2") (width 0.05) (tstamp 2f9bbd32-e24d-4eed-a8d7-9188348d6bbd))
  (fp_line (start 4.29 20.19) (end 4.89 23.52) (layer "User.2") (width 0.05) (tstamp 37923593-753f-4854-8ef7-45b4eb332b45))
  (fp_line (start 3.59 20.18) (end 4.2 23.5) (layer "User.2") (width 0.05) (tstamp 3d228622-5afb-4651-8bd0-2d779e2738c2))
  (fp_line (start 3.49 20.185) (end 3.96 23.51) (layer "User.2") (width 0.05) (tstamp 425bb358-4f29-41b7-865e-2aa094a99ce2))
  (fp_line (start 3.39 20.18) (end 3.66 22.12) (layer "User.2") (width 0.05) (tstamp 457e123e-f60d-4a8d-976a-5737c5a6849e))
  (fp_line (start 1.795 20.18) (end 1.74 22.1175) (layer "User.2") (width 0.05) (tstamp 48ad359b-3a3d-45fb-9069-c214d2da9da7))
  (fp_line (start 2.19 20.18) (end 2.135 22.1175) (layer "User.2") (width 0.05) (tstamp 4ae9ee98-676b-413b-8182-6f0296603956))
  (fp_line (start 1 20.1675) (end 0.29 24.91) (layer "User.2") (width 0.05) (tstamp 4d2ec942-90d5-496d-abbf-5741a7d3b5e7))
  (fp_line (start 5.18 19.9) (end 8.16 19.9) (layer "User.2") (width 0.05) (tstamp 510de63d-5000-44fb-9348-e05f63866abf))
  (fp_line (start 3.89 20.2) (end 4.24 22.11) (layer "User.2") (width 0.05) (tstamp 536a2ce0-a1a0-4be4-a817-b474b47424a1))
  (fp_line (start 3.09 20.18) (end 3.34 26.3) (layer "User.2") (width 0.05) (tstamp 53d2a668-c9d8-4528-9bf5-4125f6905816))
  (fp_line (start 2.3 20.18) (end 2.18 23.53) (layer "User.2") (width 0.05) (tstamp 55d17a41-70f8-4450-be50-2c69906f1ff2))
  (fp_line (start 2.89 20.19) (end 3.03 23.53) (layer "User.2") (width 0.05) (tstamp 58585e62-e4c5-4417-9c89-6e7bfaf5151f))
  (fp_line (start 2.7 20.19) (end 2.95 26.31) (layer "User.2") (width 0.05) (tstamp 6c650c70-21d9-48a1-b825-b2c2d2c1213d))
  (fp_line (start 1.59 20.18) (end 1.43 24.94) (layer "User.2") (width 0.05) (tstamp 72f4f89a-4289-4924-b732-1adf19337b98))
  (fp_line (start 0.7 20.16) (end -0.205 26.32) (layer "User.2") (width 0.05) (tstamp 730654b6-808a-4889-b28b-3d3d891d6283))
  (fp_line (start 0.5 20.1625) (end -0.005 23.52) (layer "User.2") (width 0.05) (tstamp 818aead5-2f74-44c0-aacd-c7a601fd1a58))
  (fp_line (start 0.4 20.17) (end 0.095 22.13) (layer "User.2") (width 0.05) (tstamp 8f20e652-7002-453c-abc0-8edfd2ccddcb))
  (fp_line (start 1.39 20.18) (end 1.32 22.13) (layer "User.2") (width 0.05) (tstamp 997edc20-1b83-43cf-85dd-9dd5209871bc))
  (fp_line (start 4.09 20.18) (end 4.94 24.89) (layer "User.2") (width 0.05) (tstamp 9f7ab71f-39a0-4b5e-a05c-7ba68ad7068f))
  (fp_line (start 1.2 20.17) (end 0.44 26.33) (layer "User.2") (width 0.05) (tstamp a0387789-86ba-42ac-9300-857e9124852c))
  (fp_line (start 3.79 20.2) (end 4.64 24.91) (layer "User.2") (width 0.05) (tstamp a71a4f2e-06bc-41d7-93bd-1609df08a6e8))
  (fp_line (start 4.59 20.19) (end 5.19 23.52) (layer "User.2") (width 0.05) (tstamp af2ca6c1-68a4-438b-b003-88b253e1cd91))
  (fp_line (start -2.65 19.8) (end 0.33 19.8) (layer "User.2") (width 0.05) (tstamp b16be3d0-33f7-4678-9da5-9f6473fa1125))
  (fp_line (start 2.4 20.18) (end 2.43 23.52) (layer "User.2") (width 0.05) (tstamp b1b8a9fe-f0a0-4c50-8dfe-7843d2cd6fe8))
  (fp_line (start 2.5 20.18) (end 2.55 24.93) (layer "User.2") (width 0.05) (tstamp b298afc1-df97-4d84-bc37-6e6cde14d7dc))
  (fp_line (start 1.1 20.17) (end 0.195 26.33) (layer "User.2") (width 0.05) (tstamp bb2254c2-91bc-4677-aa17-6658f889830b))
  (fp_line (start 2.79 20.185) (end 2.87 22.11) (layer "User.2") (width 0.05) (tstamp bf7b9240-57ac-4f20-8f7c-edf9477d5ea3))
  (fp_line (start 1.9 20.18) (end 1.78 23.53) (layer "User.2") (width 0.05) (tstamp c07ab6a2-c882-4717-8be7-a5917b90ed3c))
  (fp_line (start -1.58 19.9) (end 0.32 19.9) (layer "User.2") (width 0.05) (tstamp c3c3306e-9e89-4fdc-9a14-c1571356d028))
  (fp_line (start 5.09 20.18) (end 5.44 22.09) (layer "User.2") (width 0.05) (tstamp c4175960-0cb5-49e1-a629-fc7e54adbaa1))
  (fp_line (start 3 20.18) (end 3.2 24.93) (layer "User.2") (width 0.05) (tstamp cabe5715-bd2d-430b-8e81-b8bfb80a6f76))
  (fp_line (start 2 20.18) (end 1.84 24.94) (layer "User.2") (width 0.05) (tstamp ccc91a55-5c55-4e40-9e22-4eade5ab9a8b))
  (fp_line (start 3.29 20.19) (end 3.41 22.12) (layer "User.2") (width 0.05) (tstamp cef5f536-4075-431e-a1ac-aaa6dbd5bce5))
  (fp_line (start 5.17 19.79) (end 7.07 19.79) (layer "User.2") (width 0.05) (tstamp d8e3ee70-815a-4980-b63d-b18440197e38))
  (fp_line (start 3.19 20.18) (end 3.59 26.31) (layer "User.2") (width 0.05) (tstamp e1835da0-1238-44a8-9d8a-3559a2bf06ca))
  (fp_line (start 4.69 20.19) (end 5.54 24.9) (layer "User.2") (width 0.05) (tstamp e49f25e7-fe57-40be-a1ad-6fd0e60c0a4e))
  (fp_line (start 4.89 20.19) (end 5.49 23.52) (layer "User.2") (width 0.05) (tstamp e9bfab60-e53a-4cf8-af8b-6452c34ee4ec))
  (fp_line (start 4.99 20.18) (end 5.84 24.89) (layer "User.2") (width 0.05) (tstamp f11f34a3-39fc-4fef-9877-cc2fe53a8c37))
  (fp_line (start 4.19 20.19) (end 4.54 22.1) (layer "User.2") (width 0.05) (tstamp f57ad722-732e-4a45-9266-83bf319b7619))
  (fp_line (start 0.8 20.16) (end 0.5 22.12) (layer "User.2") (width 0.05) (tstamp f65821a8-51bc-429c-b791-6a678cef78e2))
  (fp_line (start 1.49 20.18) (end 1.37 23.53) (layer "User.2") (width 0.05) (tstamp fd0fb91b-0981-458b-a99c-00e1ea4800a6))
  (pad "" smd rect (at 1.995 20.18 180) (size 0.07 0.14) (layers "Dwgs.User") (tstamp 02d18da2-8d1e-437e-a9a2-2f44b6c0fb6e))
  (pad "" smd rect (at 2.095 20.18 180) (size 0.07 0.14) (layers "Dwgs.User") (tstamp 08d3b434-2267-4f8e-a8e6-6594109e7348))
  (pad "" smd rect (at 5.095 20.18 180) (size 0.07 0.14) (layers "Dwgs.User") (tstamp 0bb09a5d-6bc1-4224-9b1b-48767f46c20b))
  (pad "" smd rect (at 4.695 20.18 180) (size 0.07 0.14) (layers "Dwgs.User") (tstamp 0d6ca4b2-5012-472d-82e8-19afaa1784b3))
  (pad "" smd rect (at 3.195 20.18 180) (size 0.07 0.14) (layers "Dwgs.User") (tstamp 184403ce-3464-4365-a0ce-9ee0507fc297))
  (pad "" smd rect (at 1.895 20.18 180) (size 0.07 0.14) (layers "Dwgs.User") (tstamp 18744f79-cc46-435a-a5f1-141df8ce4f2c))
  (pad "" smd rect (at 0.595 20.18 180) (size 0.07 0.14) (layers "Dwgs.User") (tstamp 19f4e22c-6521-472f-9ecf-e1f3c730a559))
  (pad "" smd rect (at 2.995 20.18 180) (size 0.07 0.14) (layers "Dwgs.User") (tstamp 24f21696-7829-472b-9ffe-1e75fc787a81))
  (pad "" smd rect (at 4.195 20.18 180) (size 0.07 0.14) (layers "Dwgs.User") (tstamp 2aca2e90-9912-4a62-9218-f19beb33439f))
  (pad "" smd rect (at 0.895 20.18 180) (size 0.07 0.14) (layers "Dwgs.User") (tstamp 2cbd58c0-f56e-4195-8128-3537d7e6e8da))
  (pad "" smd rect (at 4.295 20.18 180) (size 0.07 0.14) (layers "Dwgs.User") (tstamp 2f02522e-1909-4a83-a47c-ec1b0e75aa1a))
  (pad "" smd rect (at 1.795 20.18 180) (size 0.07 0.14) (layers "Dwgs.User") (tstamp 383b958b-d7ee-4ecb-bb1b-e9c4909e86f9))
  (pad "" smd rect (at 3.695 20.18 180) (size 0.07 0.14) (layers "Dwgs.User") (tstamp 39b97f1f-59e8-4d2f-b5b0-82a665d6524e))
  (pad "" smd rect (at 2.595 20.18 180) (size 0.07 0.14) (layers "Dwgs.User") (tstamp 3e29be31-9391-4022-bc95-261d63485121))
  (pad "" smd rect (at 0.795 20.18 180) (size 0.07 0.14) (layers "Dwgs.User") (tstamp 3f1ebbde-3167-4bc6-9a10-fe8e80e7f3a1))
  (pad "" smd rect (at 2.495 20.18 180) (size 0.07 0.14) (layers "Dwgs.User") (tstamp 49c49d89-bc80-4d79-a369-bd523965e875))
  (pad "" smd rect (at 1.095 20.18 180) (size 0.07 0.14) (layers "Dwgs.User") (tstamp 4b820ae3-711b-4c47-82e2-7716abe3e840))
  (pad "" smd rect (at 4.795 20.18 180) (size 0.07 0.14) (layers "Dwgs.User") (tstamp 4d2285a6-f8b2-4d66-a49a-fa7e54172583))
  (pad "" smd rect (at 1.295 20.18 180) (size 0.07 0.14) (layers "Dwgs.User") (tstamp 54b670cc-6a00-4d9b-8563-83fd12c03d0a))
  (pad "" smd rect (at 0.495 20.18 180) (size 0.07 0.14) (layers "Dwgs.User") (tstamp 5f93a989-9fd9-4b4a-a68f-06d4671afad8))
  (pad "" smd rect (at 4.395 20.18 180) (size 0.07 0.14) (layers "Dwgs.User") (tstamp 61f0501d-afd7-4f71-a699-09b5d7b98220))
  (pad "" smd rect (at 3.395 20.18 180) (size 0.07 0.14) (layers "Dwgs.User") (tstamp 6929c429-f074-412b-bfc4-77f65f28c3ae))
  (pad "" smd rect (at 1.595 20.18 180) (size 0.07 0.14) (layers "Dwgs.User") (tstamp 6af5a7b7-4056-49ca-baa1-8f9dd123e05b))
  (pad "" smd rect (at 3.795 20.18 180) (size 0.07 0.14) (layers "Dwgs.User") (tstamp 6eae4669-5397-4339-a0b6-4c8338f8d01d))
  (pad "" smd rect (at 2.195 20.18 180) (size 0.07 0.14) (layers "Dwgs.User") (tstamp 733ea2f4-9316-4be9-bebb-5c908103b677))
  (pad "" smd rect (at 3.495 20.18 180) (size 0.07 0.14) (layers "Dwgs.User") (tstamp 763fc601-0194-4ee2-a5fe-4336e586a5e2))
  (pad "" smd rect (at 0.395 20.18 180) (size 0.07 0.14) (layers "Dwgs.User") (tstamp 7dd71196-8f95-44d5-8995-a2c11dffbac1))
  (pad "" smd rect (at 2.295 20.18 180) (size 0.07 0.14) (layers "Dwgs.User") (tstamp 83b175af-0b0e-4135-a633-d3e2f614be4a))
  (pad "" smd rect (at 5.18 19.895 90) (size 0.07 0.14) (layers "Dwgs.User") (tstamp 84aca45e-f7ec-4cc7-80bf-c7138c6e41ba))
  (pad "" smd rect (at 1.195 20.18 180) (size 0.07 0.14) (layers "Dwgs.User") (tstamp 86a893ef-34fc-42a8-8764-0dcc9f925c0b))
  (pad "" smd rect (at 1.695 20.18 180) (size 0.07 0.14) (layers "Dwgs.User") (tstamp 8794582f-d505-4bb9-b166-4b5feed759ff))
  (pad "" smd rect (at 0.32 19.895 90) (size 0.07 0.14) (layers "Dwgs.User") (tstamp 8a0d3317-f3a0-49e3-9dd3-5578bf73011d))
  (pad "" smd rect (at 2.695 20.18 180) (size 0.07 0.14) (layers "Dwgs.User") (tstamp 9084ce36-05af-4bf8-bac0-76fccd4bc436))
  (pad "" smd rect (at 2.795 20.18 180) (size 0.07 0.14) (layers "Dwgs.User") (tstamp 9112dd00-1b6d-4d1d-835b-0db1c8eedafb))
  (pad "" smd rect (at 0.32 19.79 90) (size 0.07 0.14) (layers "Dwgs.User") (tstamp 936773bd-0357-4d93-94be-6276e49fa84f))
  (pad "" smd rect (at 2.895 20.18 180) (size 0.07 0.14) (layers "Dwgs.User") (tstamp 9473f0ca-4b70-46f5-b653-74dfbf109495))
  (pad "" smd rect (at 1.395 20.18 180) (size 0.07 0.14) (layers "Dwgs.User") (tstamp 96e37de9-389c-4638-8251-136c0d48bae6))
  (pad "" smd rect (at 4.895 20.18 180) (size 0.07 0.14) (layers "Dwgs.User") (tstamp a7c09c9d-0d79-4495-bc54-c263fe9552bc))
  (pad "" smd rect (at 3.595 20.18 180) (size 0.07 0.14) (layers "Dwgs.User") (tstamp adef685a-29cc-416a-90d4-b014bfb50272))
  (pad "" smd rect (at 4.095 20.18 180) (size 0.07 0.14) (layers "Dwgs.User") (tstamp b1819343-8de6-497a-b2b9-fe0c1959be75))
  (pad "" smd rect (at 0.695 20.18 180) (size 0.07 0.14) (layers "Dwgs.User") (tstamp b544b3da-07f4-4bca-8039-01af1b19e21b))
  (pad "" smd rect (at 0.995 20.18 180) (size 0.07 0.14) (layers "Dwgs.User") (tstamp b9401ad6-d07c-499c-81ca-0d341064c00c))
  (pad "" smd rect (at 4.495 20.18 180) (size 0.07 0.14) (layers "Dwgs.User") (tstamp c32c1082-84c1-4b3a-a57e-8e8d4280a175))
  (pad "" smd rect (at 4.995 20.18 180) (size 0.07 0.14) (layers "Dwgs.User") (tstamp c489e705-2c33-4bcf-82ac-9d56554d6903))
  (pad "" smd rect (at 2.395 20.18 180) (size 0.07 0.14) (layers "Dwgs.User") (tstamp cefad8fb-4766-4833-ad27-f3a825b5ea6c))
  (pad "" smd rect (at 3.995 20.18 180) (size 0.07 0.14) (layers "Dwgs.User") (tstamp e193e9d1-b0d7-4c0b-9c5b-a09051fd7a66))
  (pad "" smd rect (at 3.095 20.18 180) (size 0.07 0.14) (layers "Dwgs.User") (tstamp e9445b21-c787-4d2d-98ad-68d40da0be5d))
  (pad "" smd rect (at 3.895 20.18 180) (size 0.07 0.14) (layers "Dwgs.User") (tstamp eb07213f-3550-4dc5-9292-796ac81c20eb))
  (pad "" smd rect (at 1.495 20.18 180) (size 0.07 0.14) (layers "Dwgs.User") (tstamp ee9e5cc2-12c8-4ccb-8861-f86b9379a899))
  (pad "" smd rect (at 3.295 20.18 180) (size 0.07 0.14) (layers "Dwgs.User") (tstamp ef9fa890-33d5-4907-ae9b-ab3167d3b3b6))
  (pad "" smd rect (at 4.595 20.18 180) (size 0.07 0.14) (layers "Dwgs.User") (tstamp f10a05ce-2112-4fda-aea3-9b92980af1a6))
  (pad "" smd rect (at 5.18 19.79 90) (size 0.07 0.14) (layers "Dwgs.User") (tstamp f7467f73-a3ec-4112-bf08-11e6c5cd84f6))
  (pad "0" smd rect (at 2.75 10.25) (size 5.5 20.5) (layers "F.Cu" "F.Paste" "F.Mask") (tstamp fb707777-1519-490d-ad8d-1f1f76e40102))
  (pad "A1" smd rect (at -2.9 19.8 270) (size 0.125 0.6) (layers "F.Cu" "F.Paste" "F.Mask") (tstamp e66ea2b0-830d-4ba9-8f9a-bfa3027a5565))
  (pad "A2" smd rect (at -1.8 19.9 270) (size 0.125 0.6) (layers "F.Cu" "F.Paste" "F.Mask") (tstamp 1238dad4-149e-48b1-97ac-9b2752d4b6df))
  (pad "B1" smd rect (at 0.09 22.3) (size 0.15 0.45) (layers "F.Cu" "F.Paste" "F.Mask") (tstamp 11990531-b88d-4cbc-865b-6427c69bdaf4))
  (pad "B2" smd rect (at -0.01 23.7) (size 0.15 0.45) (layers "F.Cu" "F.Paste" "F.Mask") (tstamp 54f9928a-aebc-4142-9fd0-fe6877c9587f))
  (pad "B3" smd rect (at -0.11 25.1) (size 0.15 0.45) (layers "F.Cu" "F.Paste" "F.Mask") (tstamp ffd2288f-55a9-4576-a151-885b3fbcfb60))
  (pad "B4" smd rect (at -0.21 26.5) (size 0.15 0.45) (layers "F.Cu" "F.Paste" "F.Mask") (tstamp 6c8c07b8-0948-467b-88d2-2c05b2544232))
  (pad "B5" smd rect (at 0.49 22.3) (size 0.15 0.45) (layers "F.Cu" "F.Paste" "F.Mask") (tstamp 46726bed-2f87-4c39-a6b5-9848e85c292c))
  (pad "B6" smd rect (at 0.39 23.7) (size 0.15 0.45) (layers "F.Cu" "F.Paste" "F.Mask") (tstamp f023ed7e-0e46-4f31-b661-43cf7a31899f))
  (pad "B7" smd rect (at 0.29 25.1) (size 0.15 0.45) (layers "F.Cu" "F.Paste" "F.Mask") (tstamp 0110dee7-b124-4579-884a-f192fbaf23b0))
  (pad "B8" smd rect (at 0.19 26.5) (size 0.15 0.45) (layers "F.Cu" "F.Paste" "F.Mask") (tstamp f26b73ff-c3ac-4cc9-a64f-55f9143f4c07))
  (pad "B9" smd rect (at 0.44 26.5) (size 0.15 0.45) (layers "F.Cu" "F.Paste" "F.Mask") (tstamp 684faef2-0aff-417a-b1d7-b3072255f849))
  (pad "B10" smd rect (at 1.07 22.3) (size 0.15 0.45) (layers "F.Cu" "F.Paste" "F.Mask") (tstamp 1cf899ee-3f6a-4fce-aca1-de937b03d252))
  (pad "B11" smd rect (at 1.32 22.3) (size 0.15 0.45) (layers "F.Cu" "F.Paste" "F.Mask") (tstamp e307e76a-44af-4f97-9bd1-84b91cdca5b8))
  (pad "B12" smd rect (at 1.37 23.7) (size 0.15 0.45) (layers "F.Cu" "F.Paste" "F.Mask") (tstamp 18f44e4b-9dd9-4714-8603-8544e5c03016))
  (pad "B13" smd rect (at 1.44 25.1) (size 0.15 0.45) (layers "F.Cu" "F.Paste" "F.Mask") (tstamp 88b0c488-386e-42d8-bb22-56afec1c6dae))
  (pad "B14" smd rect (at 1.5 26.5) (size 0.15 0.45) (layers "F.Cu" "F.Paste" "F.Mask") (tstamp 67dd774e-fe99-4b53-b1b3-54049ac27a6d))
  (pad "B15" smd rect (at 1.74 22.3) (size 0.15 0.45) (layers "F.Cu" "F.Paste" "F.Mask") (tstamp a5d4fe2e-c847-40e6-a248-bf93132bcfc5))
  (pad "B16" smd rect (at 1.78 23.7) (size 0.15 0.45) (layers "F.Cu" "F.Paste" "F.Mask") (tstamp fcb96e37-57af-4c0c-8ccd-f84b45561867))
  (pad "B17" smd rect (at 1.84 25.1) (size 0.15 0.45) (layers "F.Cu" "F.Paste" "F.Mask") (tstamp 617a5aab-dccf-48c5-87b2-ea6b8fae69d9))
  (pad "B18" smd rect (at 1.9 26.5) (size 0.15 0.45) (layers "F.Cu" "F.Paste" "F.Mask") (tstamp cc3a7d3e-3bdc-4d8b-82f5-97b5ecc76d5b))
  (pad "B19" smd rect (at 2.14 22.3) (size 0.15 0.45) (layers "F.Cu" "F.Paste" "F.Mask") (tstamp f06a871c-c26b-4823-bd55-c0130c7b6e10))
  (pad "B20" smd rect (at 2.18 23.7) (size 0.15 0.45) (layers "F.Cu" "F.Paste" "F.Mask") (tstamp 6ecb4d5d-e130-4690-abed-3aee29f24e7b))
  (pad "B21" smd rect (at 2.43 23.7) (size 0.15 0.45) (layers "F.Cu" "F.Paste" "F.Mask") (tstamp 99e6e7d5-b065-4a24-aa61-b1c719f3eb4f))
  (pad "B22" smd rect (at 2.55 25.1) (size 0.15 0.45) (layers "F.Cu" "F.Paste" "F.Mask") (tstamp f215b9aa-0b28-46c6-939e-1fcb693bae16))
  (pad "B23" smd rect (at 2.8 25.1) (size 0.15 0.45) (layers "F.Cu" "F.Paste" "F.Mask") (tstamp 5135bac0-1cdd-4afc-9d7c-724c7d3f1434))
  (pad "B24" smd rect (at 2.95 26.5) (size 0.15 0.45) (layers "F.Cu" "F.Paste" "F.Mask") (tstamp 38cf7a2a-db07-48fc-8910-d101b6af10de))
  (pad "B25" smd rect (at 2.87 22.3) (size 0.15 0.45) (layers "F.Cu" "F.Paste" "F.Mask") (tstamp faa6c376-598b-4244-b8ae-85894efeda28))
  (pad "B26" smd rect (at 3.03 23.7) (size 0.15 0.45) (layers "F.Cu" "F.Paste" "F.Mask") (tstamp 92de14d7-207e-43ab-a102-444a853cebd3))
  (pad "B27" smd rect (at 3.2 25.1) (size 0.15 0.45) (layers "F.Cu" "F.Paste" "F.Mask") (tstamp 0303cd68-3efc-4da5-80b0-b2c910cfd6b4))
  (pad "B28" smd rect (at 3.34 26.5) (size 0.15 0.45) (layers "F.Cu" "F.Paste" "F.Mask") (tstamp e142aa05-e0f4-4af6-8b4e-7aab37ceb6d9))
  (pad "B29" smd rect (at 3.59 26.5) (size 0.15 0.45) (layers "F.Cu" "F.Paste" "F.Mask") (tstamp c25526a1-0181-4457-9a5f-59bf8a671b43))
  (pad "B30" smd rect (at 3.41 22.3) (size 0.15 0.45) (layers "F.Cu" "F.Paste" "F.Mask") (tstamp 6549da6d-c14a-44c1-bba1-c25e64ff1f69))
  (pad "B31" smd rect (at 3.66 22.3) (size 0.15 0.45) (layers "F.Cu" "F.Paste" "F.Mask") (tstamp 27bf6c41-c33b-4bb3-9d30-cce6ca79b370))
  (pad "B32" smd rect (at 3.96 23.7) (size 0.15 0.45) (layers "F.Cu" "F.Paste" "F.Mask") (tstamp 316ddbcd-e197-438e-b49e-08401ef2b3ae))
  (pad "B33" smd rect (at 4.21 23.7) (size 0.15 0.45) (layers "F.Cu" "F.Paste" "F.Mask") (tstamp 27167956-8d58-4ebf-b25f-172e4841f289))
  (pad "B34" smd rect (at 4.4 25.04) (size 0.15 0.45) (layers "F.Cu" "F.Paste" "F.Mask") (tstamp 70b8007f-78c5-40f8-81bd-d14f4188e0db))
  (pad "B35" smd rect (at 4.64 25.1) (size 0.15 0.45) (layers "F.Cu" "F.Paste" "F.Mask") (tstamp 47a855a5-ba97-4b43-8344-206dc54e0566))
  (pad "B36" smd rect (at 4.24 22.3) (size 0.15 0.45) (layers "F.Cu" "F.Paste" "F.Mask") (tstamp 5f665670-88e5-476d-bb53-34a357455336))
  (pad "B37" smd rect (at 4.59 23.7) (size 0.15 0.45) (layers "F.Cu" "F.Paste" "F.Mask") (tstamp fb8dfa5a-6f9d-4dcf-86f0-278459f08097))
  (pad "B38" smd rect (at 4.94 25.1) (size 0.15 0.45) (layers "F.Cu" "F.Paste" "F.Mask") (tstamp 5b94e3c1-6a43-4fe5-9043-ab927cc0d3c0))
  (pad "B39" smd rect (at 4.54 22.3) (size 0.15 0.45) (layers "F.Cu" "F.Paste" "F.Mask") (tstamp 8a25d260-5e8f-425e-a3f0-3b7397d9a698))
  (pad "B40" smd rect (at 4.89 23.7) (size 0.15 0.45) (layers "F.Cu" "F.Paste" "F.Mask") (tstamp 7cd0bbbd-13d1-4b0f-8edc-12c1427c6c19))
  (pad "B41" smd rect (at 5.24 25.1) (size 0.15 0.45) (layers "F.Cu" "F.Paste" "F.Mask") (tstamp 7222a4e3-89d8-416d-9a9c-5d4f6efc10f1))
  (pad "B42" smd rect (at 4.84 22.3) (size 0.15 0.45) (layers "F.Cu" "F.Paste" "F.Mask") (tstamp ff36e591-4505-4c94-a1cf-c85f154477c5))
  (pad "B43" smd rect (at 5.19 23.7) (size 0.15 0.45) (layers "F.Cu" "F.Paste" "F.Mask") (tstamp 66aff479-bc44-4139-91c2-a740099159f5))
  (pad "B44" smd rect (at 5.54 25.1) (size 0.15 0.45) (layers "F.Cu" "F.Paste" "F.Mask") (tstamp 29106ca9-46b3-477f-b108-ec9b35ff5b7a))
  (pad "B45" smd rect (at 5.14 22.3) (size 0.15 0.45) (layers "F.Cu" "F.Paste" "F.Mask") (tstamp 58185365-56d0-4e99-b4d5-540af0b9d33d))
  (pad "B46" smd rect (at 5.49 23.7) (size 0.15 0.45) (layers "F.Cu" "F.Paste" "F.Mask") (tstamp 2e62228b-1e18-4ea8-b276-71188de29703))
  (pad "B47" smd rect (at 5.84 25.1) (size 0.15 0.45) (layers "F.Cu" "F.Paste" "F.Mask") (tstamp 212149a5-27ee-4dd2-b233-80a0e5da3b3a))
  (pad "B48" smd rect (at 5.44 22.3) (size 0.15 0.45) (layers "F.Cu" "F.Paste" "F.Mask") (tstamp 56055d99-4650-4e0f-a502-fdc98759ed66))
  (pad "C1" smd rect (at 8.4 19.9 270) (size 0.125 0.6) (layers "F.Cu" "F.Paste" "F.Mask") (tstamp 26f78cdc-0d32-413a-a004-0ec750366dfd))
  (pad "C2" smd rect (at 7.3 19.8 270) (size 0.125 0.6) (layers "F.Cu" "F.Paste" "F.Mask") (tstamp e5063afc-b1fc-486e-9372-122a375087b3))
)
