(kicad_symbol_lib (version 20211014) (generator kicad_symbol_editor)
  (symbol "FXL6408UMX" (pin_names (offset 1.016)) (in_bom yes) (on_board yes)
    (property "Reference" "U" (id 0) (at 0 5.08 0)
      (effects (font (size 1.27 1.27)) (justify left))
    )
    (property "Value" "FXL6408UMX" (id 1) (at 0 7.62 0)
      (effects (font (size 1.27 1.27)) (justify left))
    )
    (property "Footprint" "ON_Semiconductor-523BF-10_2016-O-*" (id 2) (at 0 10.16 0)
      (effects (font (size 1.27 1.27)) (justify left) hide)
    )
    (property "Datasheet" "https://www.onsemi.com/pub/Collateral/FXL6408-D.pdf" (id 3) (at 0 12.7 0)
      (effects (font (size 1.27 1.27)) (justify left) hide)
    )
    (property "ambient temperature range high" "+85°C" (id 4) (at 0 15.24 0)
      (effects (font (size 1.27 1.27)) (justify left) hide)
    )
    (property "ambient temperature range low" "-40°C" (id 5) (at 0 17.78 0)
      (effects (font (size 1.27 1.27)) (justify left) hide)
    )
    (property "automotive" "No" (id 6) (at 0 20.32 0)
      (effects (font (size 1.27 1.27)) (justify left) hide)
    )
    (property "category" "IC" (id 7) (at 0 22.86 0)
      (effects (font (size 1.27 1.27)) (justify left) hide)
    )
    (property "device class L1" "Integrated Circuits (ICs)" (id 8) (at 0 25.4 0)
      (effects (font (size 1.27 1.27)) (justify left) hide)
    )
    (property "device class L2" "Interface ICs" (id 9) (at 0 27.94 0)
      (effects (font (size 1.27 1.27)) (justify left) hide)
    )
    (property "device class L3" "I/O Expanders" (id 10) (at 0 30.48 0)
      (effects (font (size 1.27 1.27)) (justify left) hide)
    )
    (property "digikey description" "IC GPIO EXPANDER I2C 8B 16-UMLP" (id 11) (at 0 33.02 0)
      (effects (font (size 1.27 1.27)) (justify left) hide)
    )
    (property "digikey part number" "FXL6408UMXCT-ND" (id 12) (at 0 35.56 0)
      (effects (font (size 1.27 1.27)) (justify left) hide)
    )
    (property "footprint url" "https://www.onsemi.com/pub/Collateral/523BF.PDF" (id 13) (at 0 38.1 0)
      (effects (font (size 1.27 1.27)) (justify left) hide)
    )
    (property "frequency" "400kHz" (id 14) (at 0 40.64 0)
      (effects (font (size 1.27 1.27)) (justify left) hide)
    )
    (property "height" "0.55mm" (id 15) (at 0 43.18 0)
      (effects (font (size 1.27 1.27)) (justify left) hide)
    )
    (property "interface" "I2C" (id 16) (at 0 45.72 0)
      (effects (font (size 1.27 1.27)) (justify left) hide)
    )
    (property "lead free" "Yes" (id 17) (at 0 48.26 0)
      (effects (font (size 1.27 1.27)) (justify left) hide)
    )
    (property "library id" "c7620683c1ea0ab0" (id 18) (at 0 50.8 0)
      (effects (font (size 1.27 1.27)) (justify left) hide)
    )
    (property "manufacturer" "ON Semiconductor" (id 19) (at 0 53.34 0)
      (effects (font (size 1.27 1.27)) (justify left) hide)
    )
    (property "max junction temp" "+150°C" (id 20) (at 0 55.88 0)
      (effects (font (size 1.27 1.27)) (justify left) hide)
    )
    (property "max supply voltage" "4V" (id 21) (at 0 58.42 0)
      (effects (font (size 1.27 1.27)) (justify left) hide)
    )
    (property "min supply voltage" "1.65V" (id 22) (at 0 60.96 0)
      (effects (font (size 1.27 1.27)) (justify left) hide)
    )
    (property "mouser description" "FXL6408 Series 1.65 to 4 V Open Drain 8-Bit I2C-Controlled GPIO Expander-UMLP-16" (id 23) (at 0 63.5 0)
      (effects (font (size 1.27 1.27)) (justify left) hide)
    )
    (property "mouser part number" "512-FXL6408UMX" (id 24) (at 0 66.04 0)
      (effects (font (size 1.27 1.27)) (justify left) hide)
    )
    (property "nominal supply current" "300uA" (id 25) (at 0 68.58 0)
      (effects (font (size 1.27 1.27)) (justify left) hide)
    )
    (property "number of I/Os" "8" (id 26) (at 0 71.12 0)
      (effects (font (size 1.27 1.27)) (justify left) hide)
    )
    (property "package" "UMLP16" (id 27) (at 0 73.66 0)
      (effects (font (size 1.27 1.27)) (justify left) hide)
    )
    (property "rohs" "Yes" (id 28) (at 0 76.2 0)
      (effects (font (size 1.27 1.27)) (justify left) hide)
    )
    (property "standoff height" "0mm" (id 29) (at 0 78.74 0)
      (effects (font (size 1.27 1.27)) (justify left) hide)
    )
    (property "temperature range high" "+85°C" (id 30) (at 0 81.28 0)
      (effects (font (size 1.27 1.27)) (justify left) hide)
    )
    (property "temperature range low" "-40°C" (id 31) (at 0 83.82 0)
      (effects (font (size 1.27 1.27)) (justify left) hide)
    )
    (property "ki_locked" "" (id 32) (at 0 0 0)
      (effects (font (size 1.27 1.27)))
    )
    (property "ki_description" "FXL6408UMX" (id 33) (at 0 0 0)
      (effects (font (size 1.27 1.27)) hide)
    )
    (symbol "FXL6408UMX_1_1"
      (rectangle (start 5.08 2.54) (end 27.94 -30.48)
        (stroke (width 0) (type default) (color 0 0 0 0))
        (fill (type background))
      )
      (pin output line (at 30.48 -22.86 180) (length 2.54)
        (name "~{INT}" (effects (font (size 1.016 1.016))))
        (number "1" (effects (font (size 1.016 1.016))))
      )
      (pin input line (at 2.54 -25.4 0) (length 2.54)
        (name "~{RST}" (effects (font (size 1.016 1.016))))
        (number "10" (effects (font (size 1.016 1.016))))
      )
      (pin bidirectional line (at 30.48 -2.54 180) (length 2.54)
        (name "GPIO1" (effects (font (size 1.016 1.016))))
        (number "11" (effects (font (size 1.016 1.016))))
      )
      (pin bidirectional line (at 30.48 0 180) (length 2.54)
        (name "GPIO0" (effects (font (size 1.016 1.016))))
        (number "12" (effects (font (size 1.016 1.016))))
      )
      (pin input clock (at 2.54 -12.7 0) (length 2.54)
        (name "SCL" (effects (font (size 1.016 1.016))))
        (number "13" (effects (font (size 1.016 1.016))))
      )
      (pin bidirectional line (at 2.54 -15.24 0) (length 2.54)
        (name "SDA" (effects (font (size 1.016 1.016))))
        (number "14" (effects (font (size 1.016 1.016))))
      )
      (pin power_in line (at 2.54 0 0) (length 2.54)
        (name "VCC" (effects (font (size 1.016 1.016))))
        (number "15" (effects (font (size 1.016 1.016))))
      )
      (pin power_in line (at 30.48 -27.94 180) (length 2.54)
        (name "GND" (effects (font (size 1.016 1.016))))
        (number "16" (effects (font (size 1.016 1.016))))
      )
      (pin power_in line (at 2.54 -5.08 0) (length 2.54)
        (name "VDDIO" (effects (font (size 1.016 1.016))))
        (number "2" (effects (font (size 1.016 1.016))))
      )
      (pin bidirectional line (at 30.48 -17.78 180) (length 2.54)
        (name "GPIO7" (effects (font (size 1.016 1.016))))
        (number "3" (effects (font (size 1.016 1.016))))
      )
      (pin bidirectional line (at 30.48 -15.24 180) (length 2.54)
        (name "GPIO6" (effects (font (size 1.016 1.016))))
        (number "4" (effects (font (size 1.016 1.016))))
      )
      (pin bidirectional line (at 30.48 -12.7 180) (length 2.54)
        (name "GPIO5" (effects (font (size 1.016 1.016))))
        (number "5" (effects (font (size 1.016 1.016))))
      )
      (pin bidirectional line (at 30.48 -10.16 180) (length 2.54)
        (name "GPIO4" (effects (font (size 1.016 1.016))))
        (number "6" (effects (font (size 1.016 1.016))))
      )
      (pin bidirectional line (at 30.48 -7.62 180) (length 2.54)
        (name "GPIO3" (effects (font (size 1.016 1.016))))
        (number "7" (effects (font (size 1.016 1.016))))
      )
      (pin bidirectional line (at 30.48 -5.08 180) (length 2.54)
        (name "GPIO2" (effects (font (size 1.016 1.016))))
        (number "8" (effects (font (size 1.016 1.016))))
      )
      (pin input line (at 2.54 -20.32 0) (length 2.54)
        (name "ADDR" (effects (font (size 1.016 1.016))))
        (number "9" (effects (font (size 1.016 1.016))))
      )
    )
  )
  (symbol "PI5A3157" (in_bom yes) (on_board yes)
    (property "Reference" "U" (id 0) (at 0 0 0)
      (effects (font (size 1.27 1.27)) hide)
    )
    (property "Value" "PI5A3157" (id 1) (at 0 -2.54 0)
      (effects (font (size 1.27 1.27)))
    )
    (property "Footprint" "dmaps_components:SOP65P210X110-6N" (id 2) (at -1.27 -6.35 0)
      (effects (font (size 1.27 1.27)) hide)
    )
    (property "Datasheet" "" (id 3) (at 0 0 0)
      (effects (font (size 1.27 1.27)) hide)
    )
    (symbol "PI5A3157_0_0"
      (pin unspecified line (at -8.89 12.7 0) (length 2.54)
        (name "B1" (effects (font (size 1.27 1.27))))
        (number "1" (effects (font (size 1.27 1.27))))
      )
      (pin unspecified line (at -8.89 8.89 0) (length 2.54)
        (name "GND" (effects (font (size 1.27 1.27))))
        (number "2" (effects (font (size 1.27 1.27))))
      )
      (pin unspecified line (at -8.89 5.08 0) (length 2.54)
        (name "B0" (effects (font (size 1.27 1.27))))
        (number "3" (effects (font (size 1.27 1.27))))
      )
      (pin unspecified line (at 11.43 5.08 180) (length 2.54)
        (name "A" (effects (font (size 1.27 1.27))))
        (number "4" (effects (font (size 1.27 1.27))))
      )
      (pin unspecified line (at 11.43 8.89 180) (length 2.54)
        (name "VDD" (effects (font (size 1.27 1.27))))
        (number "5" (effects (font (size 1.27 1.27))))
      )
      (pin unspecified line (at 11.43 12.7 180) (length 2.54)
        (name "S" (effects (font (size 1.27 1.27))))
        (number "6" (effects (font (size 1.27 1.27))))
      )
    )
    (symbol "PI5A3157_0_1"
      (rectangle (start -6.35 16.51) (end 8.89 1.27)
        (stroke (width 0) (type default) (color 0 0 0 0))
        (fill (type background))
      )
    )
  )
)
