(module C_Ceramic_150u (layer F.Cu) (tedit 5FFC48BB)
  (fp_text reference REF** (at 0 -3) (layer F.SilkS)
    (effects (font (size 1 1) (thickness 0.15)))
  )
  (fp_text value C (at 0 -0.5) (layer F.Fab)
    (effects (font (size 1 1) (thickness 0.15)))
  )
  (pad 1 smd rect (at -3.5 0) (size 2 4) (layers F.Cu F.Paste F.Mask))
  (pad 2 smd rect (at 3.5 0) (size 2 4) (layers F.Cu F.Paste F.Mask))
)
