(module displayport (layer F.Cu) (tedit 6062EEEB)
  (descr 47272-0024)
  (tags Connector)
  (fp_text reference J** (at 0 0) (layer F.SilkS)
    (effects (font (size 1.27 1.27) (thickness 0.254)))
  )
  (fp_text value displayport (at 0 0) (layer F.SilkS) hide
    (effects (font (size 1.27 1.27) (thickness 0.254)))
  )
  (fp_line (start 5.4 -8) (end 5.4 -8) (layer F.SilkS) (width 0.2))
  (fp_line (start 5.6 -8) (end 5.6 -8) (layer F.SilkS) (width 0.2))
  (fp_line (start 8.45 -5.9) (end 5.6 -5.9) (layer F.SilkS) (width 0.1))
  (fp_line (start -8.45 -5.9) (end -5 -5.9) (layer F.SilkS) (width 0.1))
  (fp_line (start 8.45 8.1) (end 8.45 5.1) (layer F.SilkS) (width 0.1))
  (fp_line (start -8.45 8.1) (end 8.45 8.1) (layer F.SilkS) (width 0.1))
  (fp_line (start -8.45 5.1) (end -8.45 8.1) (layer F.SilkS) (width 0.1))
  (fp_line (start -10.58 9.1) (end -10.58 -9.1) (layer F.CrtYd) (width 0.1))
  (fp_line (start 10.58 9.1) (end -10.58 9.1) (layer F.CrtYd) (width 0.1))
  (fp_line (start 10.58 -9.1) (end 10.58 9.1) (layer F.CrtYd) (width 0.1))
  (fp_line (start -10.58 -9.1) (end 10.58 -9.1) (layer F.CrtYd) (width 0.1))
  (fp_line (start -8.45 8.1) (end -8.45 -5.9) (layer F.Fab) (width 0.2))
  (fp_line (start 8.45 8.1) (end -8.45 8.1) (layer F.Fab) (width 0.2))
  (fp_line (start 8.45 -5.9) (end 8.45 8.1) (layer F.Fab) (width 0.2))
  (fp_line (start -8.45 -5.9) (end 8.45 -5.9) (layer F.Fab) (width 0.2))
  (fp_arc (start 5.5 -8) (end 5.4 -8) (angle -180) (layer F.SilkS) (width 0.2))
  (fp_arc (start 5.5 -8) (end 5.6 -8) (angle -180) (layer F.SilkS) (width 0.2))
  (fp_text user %R (at 0 0) (layer F.Fab)
    (effects (font (size 1.27 1.27) (thickness 0.254)))
  )
  (pad MH5 np_thru_hole circle (at 0 3.8) (size 1.45 0) (drill 1.45) (layers *.Cu *.Mask))
  (pad MH4 thru_hole oval (at 8.25 -3.76) (size 1.2 2.4) (drill oval 0.6 1.7734) (layers *.Cu *.Mask))
  (pad MH3 thru_hole oval (at 8.25 3.02) (size 1.2 1.982) (drill oval 0.6 1.321) (layers *.Cu *.Mask))
  (pad MH2 thru_hole oval (at -8.25 3.02) (size 1.2 1.982) (drill oval 0.6 1.321) (layers *.Cu *.Mask))
  (pad MH1 thru_hole oval (at -8.25 -3.76) (size 1.2 2.4) (drill oval 0.7 1.77) (layers *.Cu *.Mask))
  (pad 20 smd rect (at -4 -6.36) (size 0.28 2.4) (layers F.Cu F.Paste F.Mask))
  (pad 19 smd rect (at -3.5 -6.36) (size 0.28 2.4) (layers F.Cu F.Paste F.Mask))
  (pad 18 smd rect (at -3 -6.36) (size 0.28 2.4) (layers F.Cu F.Paste F.Mask))
  (pad 17 smd rect (at -2.5 -6.36) (size 0.28 2.4) (layers F.Cu F.Paste F.Mask))
  (pad 16 smd rect (at -2 -6.36) (size 0.28 2.4) (layers F.Cu F.Paste F.Mask))
  (pad 15 smd rect (at -1.5 -6.36) (size 0.28 2.4) (layers F.Cu F.Paste F.Mask))
  (pad 14 smd rect (at -1 -6.36) (size 0.28 2.4) (layers F.Cu F.Paste F.Mask))
  (pad 13 smd rect (at -0.5 -6.36) (size 0.28 2.4) (layers F.Cu F.Paste F.Mask))
  (pad 12 smd rect (at 0 -6.36) (size 0.28 2.4) (layers F.Cu F.Paste F.Mask))
  (pad 11 smd rect (at 0.5 -6.36) (size 0.28 2.4) (layers F.Cu F.Paste F.Mask))
  (pad 10 smd rect (at 1 -6.36) (size 0.28 2.4) (layers F.Cu F.Paste F.Mask))
  (pad 9 smd rect (at 1.5 -6.36) (size 0.28 2.4) (layers F.Cu F.Paste F.Mask))
  (pad 8 smd rect (at 2 -6.36) (size 0.28 2.4) (layers F.Cu F.Paste F.Mask))
  (pad 7 smd rect (at 2.5 -6.36) (size 0.28 2.4) (layers F.Cu F.Paste F.Mask))
  (pad 6 smd rect (at 3 -6.36) (size 0.28 2.4) (layers F.Cu F.Paste F.Mask))
  (pad 5 smd rect (at 3.5 -6.36) (size 0.28 2.4) (layers F.Cu F.Paste F.Mask))
  (pad 4 smd rect (at 4 -6.36) (size 0.28 2.4) (layers F.Cu F.Paste F.Mask))
  (pad 3 smd rect (at 4.5 -6.36) (size 0.28 2.4) (layers F.Cu F.Paste F.Mask))
  (pad 2 smd rect (at 5 -6.36) (size 0.28 2.4) (layers F.Cu F.Paste F.Mask))
  (pad 1 smd rect (at 5.5 -6.36) (size 0.28 2.4) (layers F.Cu F.Paste F.Mask))
  (model 47272-0024.stp
    (offset (xyz 0 -7.44999969737745 3.499999947435244))
    (scale (xyz 1 1 1))
    (rotate (xyz -90 0 0))
  )
  (model ${KIPRJMOD}/lib/dmaps_components/dmaps_components.3dshapes/displayport.stp
    (offset (xyz 0 -7.5 3.5))
    (scale (xyz 1 1 1))
    (rotate (xyz -90 0 0))
  )
)
